﻿class CfgWeapons
{
	class SmokeLauncher: MGun
	{
		class StandardSound
		{
			class SoundTails
			{
				class TailInterior
				{
					sound[] = {"A3\Sounds_F\arsenal\weapons\UGL\UGL_tail_interior",2.23872,1,200};
					frequency = 1;
					volume = "interior";
				};
				class TailTrees
				{
					sound[] = {"A3\Sounds_F\arsenal\weapons\UGL\UGL_tail_trees",1,1,200};
					frequency = 1;
					volume = "(1-interior/1.4)*trees";
				};
				class TailForest
				{
					sound[] = {"A3\Sounds_F\arsenal\weapons\UGL\UGL_tail_forest",1,1,200};
					frequency = 1;
					volume = "(1-interior/1.4)*forest";
				};
				class TailMeadows
				{
					sound[] = {"A3\Sounds_F\arsenal\weapons\UGL\UGL_tail_meadows",1,1,200};
					frequency = 1;
					volume = "(1-interior/1.4)*(meadows/2 max sea/2)";
				};
				class TailHouses
				{
					sound[] = {"A3\Sounds_F\arsenal\weapons\UGL\UGL_tail_houses",1,1,200};
					frequency = 1;
					volume = "(1-interior/1.4)*houses";
				};
			};
		};
	};

	class hgun_ACPC2_F: Pistol_Base_F
	{
		class Single: Mode_SemiAuto
		{
			class StandardSound: BaseSoundModeType
			{
				class SoundTails
				{
					class TailInterior
					{
						sound[] = {"A3\Sounds_F\arsenal\weapons\Pistols\Acpc2\acpc2_tail_interior",1.41254,1,1400};
						frequency = 1;
						volume = "interior";
					};
					class TailTrees
					{
						sound[] = {"A3\Sounds_F\arsenal\weapons\Pistols\Acpc2\acpc2_tail_trees",1,1,1400};
						frequency = 1;
						volume = "(1-interior/1.4)*trees";
					};
					class TailForest
					{
						sound[] = {"A3\Sounds_F\arsenal\weapons\Pistols\Acpc2\acpc2_tail_forest",1,1,1400};
						frequency = 1;
						volume = "(1-interior/1.4)*forest";
					};
					class TailMeadows
					{
						sound[] = {"A3\Sounds_F\arsenal\weapons\Pistols\Acpc2\acpc2_tail_meadows",1,1,1400};
						frequency = 1;
						volume = "(1-interior/1.4)*(meadows/2 max sea/2)";
					};
					class TailHouses
					{
						sound[] = {"A3\Sounds_F\arsenal\weapons\Pistols\Acpc2\acpc2_tail_houses",1,1,1400};
						frequency = 1;
						volume = "(1-interior/1.4)*houses";
					};
				};
			};
			class SilencedSound: BaseSoundModeType
			{
				class SoundTails
				{
					class TailInterior
					{
						sound[] = {"A3\Sounds_F\arsenal\weapons\Pistols\Acpc2\Silencer_Acpc2_tail_interior",1,1,600};
						frequency = 1;
						volume = "interior";
					};
					class TailTrees
					{
						sound[] = {"A3\Sounds_F\arsenal\weapons\Pistols\Acpc2\Silencer_Acpc2_tail_trees",1,1,600};
						frequency = 1;
						volume = "(1-interior/1.4)*trees";
					};
					class TailForest
					{
						sound[] = {"A3\Sounds_F\arsenal\weapons\Pistols\Acpc2\Silencer_Acpc2_tail_forest",1,1,600};
						frequency = 1;
						volume = "(1-interior/1.4)*forest";
					};
					class TailMeadows
					{
						sound[] = {"A3\Sounds_F\arsenal\weapons\Pistols\Acpc2\Silencer_Acpc2_tail_meadows",1,1,600};
						frequency = 1;
						volume = "(1-interior/1.4)*(meadows/2 max sea/2)";
					};
					class TailHouses
					{
						sound[] = {"A3\Sounds_F\arsenal\weapons\Pistols\Acpc2\Silencer_Acpc2_tail_houses",1,1,600};
						frequency = 1;
						volume = "(1-interior/1.4)*houses";
					};
				};
			};
		};
	};
	class hgun_P07_F: Pistol_Base_F
	{
		class Single: Mode_SemiAuto
		{
			class StandardSound: BaseSoundModeType
			{
				class SoundTails
				{
					class TailInterior
					{
						sound[] = {"A3\Sounds_F\arsenal\weapons\Pistols\P07\P07_tail_interior",1,1,1200};
						frequency = 1;
						volume = "interior";
					};
					class TailTrees
					{
						sound[] = {"A3\Sounds_F\arsenal\weapons\Pistols\P07\P07_tail_trees",1,1,1200};
						frequency = 1;
						volume = "(1-interior/1.4)*trees";
					};
					class TailForest
					{
						sound[] = {"A3\Sounds_F\arsenal\weapons\Pistols\P07\P07_tail_forest",1,1,1200};
						frequency = 1;
						volume = "(1-interior/1.4)*forest";
					};
					class TailMeadows
					{
						sound[] = {"A3\Sounds_F\arsenal\weapons\Pistols\P07\P07_tail_meadows",1,1,1200};
						frequency = 1;
						volume = "(1-interior/1.4)*(meadows/2 max sea/2)";
					};
					class TailHouses
					{
						sound[] = {"A3\Sounds_F\arsenal\weapons\Pistols\P07\P07_tail_houses",1,1,1200};
						frequency = 1;
						volume = "(1-interior/1.4)*houses";
					};
				};
			};
			class SilencedSound: BaseSoundModeType
			{
				class SoundTails
				{
					class TailInterior
					{
						sound[] = {"A3\Sounds_F\arsenal\weapons\Pistols\P07\Silencer_P07_tail_interior",1,1,400};
						frequency = 1;
						volume = "interior";
					};
					class TailTrees
					{
						sound[] = {"A3\Sounds_F\arsenal\weapons\Pistols\P07\Silencer_P07_tail_trees",1,1,400};
						frequency = 1;
						volume = "(1-interior/1.4)*trees";
					};
					class TailForest
					{
						sound[] = {"A3\Sounds_F\arsenal\weapons\Pistols\P07\Silencer_P07_tail_forest",1,1,400};
						frequency = 1;
						volume = "(1-interior/1.4)*forest";
					};
					class TailMeadows
					{
						sound[] = {"A3\Sounds_F\arsenal\weapons\Pistols\P07\Silencer_P07_tail_meadows",1,1,400};
						frequency = 1;
						volume = "(1-interior/1.4)*(meadows/2 max sea/2)";
					};
					class TailHouses
					{
						sound[] = {"A3\Sounds_F\arsenal\weapons\Pistols\P07\Silencer_P07_tail_houses",1,1,400};
						frequency = 1;
						volume = "(1-interior/1.4)*houses";
					};
				};
			};
		};
	};
	class hgun_Pistol_heavy_01_F: Pistol_Base_F
	{
		class Single: Mode_SemiAuto
		{
			class StandardSound: BaseSoundModeType
			{
				class SoundTails
				{
					class TailInterior
					{
						sound[] = {"A3\Sounds_F\arsenal\weapons\Pistols\4-Five\4-Five_tail_interior",1.41254,1,1400};
						frequency = 1;
						volume = "interior";
					};
					class TailTrees
					{
						sound[] = {"A3\Sounds_F\arsenal\weapons\Pistols\4-Five\4-Five_tail_trees",1,1,1400};
						frequency = 1;
						volume = "(1-interior/1.4)*trees";
					};
					class TailForest
					{
						sound[] = {"A3\Sounds_F\arsenal\weapons\Pistols\4-Five\4-Five_tail_forest",1,1,1400};
						frequency = 1;
						volume = "(1-interior/1.4)*forest";
					};
					class TailMeadows
					{
						sound[] = {"A3\Sounds_F\arsenal\weapons\Pistols\4-Five\4-Five_tail_meadows",1,1,1400};
						frequency = 1;
						volume = "(1-interior/1.4)*(meadows/2 max sea/2)";
					};
					class TailHouses
					{
						sound[] = {"A3\Sounds_F\arsenal\weapons\Pistols\4-Five\4-Five_tail_houses",1,1,1400};
						frequency = 1;
						volume = "(1-interior/1.4)*houses";
					};
				};
			};
			class SilencedSound: BaseSoundModeType
			{
				class SoundTails
				{
					class TailInterior
					{
						sound[] = {"A3\Sounds_F\arsenal\weapons\Pistols\4-Five\Silencer_4-Five_tail_interior",1,1,600};
						frequency = 1;
						volume = "interior";
					};
					class TailTrees
					{
						sound[] = {"A3\Sounds_F\arsenal\weapons\Pistols\4-Five\Silencer_4-Five_tail_trees",1,1,600};
						frequency = 1;
						volume = "(1-interior/1.4)*trees";
					};
					class TailForest
					{
						sound[] = {"A3\Sounds_F\arsenal\weapons\Pistols\4-Five\Silencer_4-Five_tail_forest",1,1,600};
						frequency = 1;
						volume = "(1-interior/1.4)*forest";
					};
					class TailMeadows
					{
						sound[] = {"A3\Sounds_F\arsenal\weapons\Pistols\4-Five\Silencer_4-Five_tail_meadows",1,1,600};
						frequency = 1;
						volume = "(1-interior/1.4)*(meadows/2 max sea/2)";
					};
					class TailHouses
					{
						sound[] = {"A3\Sounds_F\arsenal\weapons\Pistols\4-Five\Silencer_4-Five_tail_houses",1,1,600};
						frequency = 1;
						volume = "(1-interior/1.4)*houses";
					};
				};
			};
		};
	};
	class hgun_Pistol_heavy_02_F: Pistol_Base_F
	{
		class Single: Mode_SemiAuto
		{
			class StandardSound: BaseSoundModeType
			{
				class SoundTails
				{
					class TailInterior
					{
						sound[] = {"A3\Sounds_F\arsenal\weapons\Pistols\Zubr\Zubr_tail_interior",1.41254,1,1400};
						frequency = 1;
						volume = "interior";
					};
					class TailTrees
					{
						sound[] = {"A3\Sounds_F\arsenal\weapons\Pistols\Zubr\Zubr_tail_trees",1,1,1400};
						frequency = 1;
						volume = "(1-interior/1.4)*trees";
					};
					class TailForest
					{
						sound[] = {"A3\Sounds_F\arsenal\weapons\Pistols\Zubr\Zubr_tail_forest",1,1,1400};
						frequency = 1;
						volume = "(1-interior/1.4)*forest";
					};
					class TailMeadows
					{
						sound[] = {"A3\Sounds_F\arsenal\weapons\Pistols\Zubr\Zubr_tail_meadows",1,1,1400};
						frequency = 1;
						volume = "(1-interior/1.4)*(meadows/2 max sea/2)";
					};
					class TailHouses
					{
						sound[] = {"A3\Sounds_F\arsenal\weapons\Pistols\Zubr\Zubr_tail_houses",1,1,1400};
						frequency = 1;
						volume = "(1-interior/1.4)*houses";
					};
				};
			};
		};
	};
	class hgun_Rook40_F: Pistol_Base_F
	{
		class Single: Mode_SemiAuto
		{
			class StandardSound: BaseSoundModeType
			{
				class SoundTails
				{
					class TailInterior
					{
						sound[] = {"A3\Sounds_F\arsenal\weapons\Pistols\Rook40\Rook40_tail_interior",1.41254,1,1200};
						frequency = 1;
						volume = "interior";
					};
					class TailTrees
					{
						sound[] = {"A3\Sounds_F\arsenal\weapons\Pistols\Rook40\Rook40_tail_trees",1,1,1200};
						frequency = 1;
						volume = "(1-interior/1.4)*trees";
					};
					class TailForest
					{
						sound[] = {"A3\Sounds_F\arsenal\weapons\Pistols\Rook40\Rook40_tail_forest",1,1,1200};
						frequency = 1;
						volume = "(1-interior/1.4)*forest";
					};
					class TailMeadows
					{
						sound[] = {"A3\Sounds_F\arsenal\weapons\Pistols\Rook40\Rook40_tail_meadows",1,1,1200};
						frequency = 1;
						volume = "(1-interior/1.4)*(meadows/2 max sea/2)";
					};
					class TailHouses
					{
						sound[] = {"A3\Sounds_F\arsenal\weapons\Pistols\Rook40\Rook40_tail_houses",1,1,1200};
						frequency = 1;
						volume = "(1-interior/1.4)*houses";
					};
				};
			};
			class SilencedSound: BaseSoundModeType
			{
				class SoundTails
				{
					class TailInterior
					{
						sound[] = {"A3\Sounds_F\arsenal\weapons\Pistols\Rook40\Silencer_Rook40_tail_interior",1,1,400};
						frequency = 1;
						volume = "interior";
					};
					class TailTrees
					{
						sound[] = {"A3\Sounds_F\arsenal\weapons\Pistols\Rook40\Silencer_Rook40_tail_trees",1,1,400};
						frequency = 1;
						volume = "(1-interior/1.4)*trees";
					};
					class TailForest
					{
						sound[] = {"A3\Sounds_F\arsenal\weapons\Pistols\Rook40\Silencer_Rook40_tail_forest",1,1,400};
						frequency = 1;
						volume = "(1-interior/1.4)*forest";
					};
					class TailMeadows
					{
						sound[] = {"A3\Sounds_F\arsenal\weapons\Pistols\Rook40\Silencer_Rook40_tail_meadows",1,1,400};
						frequency = 1;
						volume = "(1-interior/1.4)*(meadows/2 max sea/2)";
					};
					class TailHouses
					{
						sound[] = {"A3\Sounds_F\arsenal\weapons\Pistols\Rook40\Silencer_Rook40_tail_houses",1,1,400};
						frequency = 1;
						volume = "(1-interior/1.4)*houses";
					};
				};
			};
		};
	};
	class hgun_Pistol_01_F: Pistol_Base_F
	{
		class Single: Mode_SemiAuto
		{
			class StandardSound: BaseSoundModeType
			{
				class SoundTails
				{
					class TailInterior
					{
						sound[] = {"A3\Sounds_F\arsenal\weapons\Pistols\P07\P07_tail_interior",1,1,1200};
						frequency = 1;
						volume = "interior";
					};
					class TailTrees
					{
						sound[] = {"A3\Sounds_F\arsenal\weapons\Pistols\P07\P07_tail_trees",1,1,1200};
						frequency = 1;
						volume = "(1-interior/1.4)*trees";
					};
					class TailForest
					{
						sound[] = {"A3\Sounds_F\arsenal\weapons\Pistols\P07\P07_tail_forest",1,1,1200};
						frequency = 1;
						volume = "(1-interior/1.4)*forest";
					};
					class TailMeadows
					{
						sound[] = {"A3\Sounds_F\arsenal\weapons\Pistols\P07\P07_tail_meadows",1,1,1200};
						frequency = 1;
						volume = "(1-interior/1.4)*(meadows/2 max sea/2)";
					};
					class TailHouses
					{
						sound[] = {"A3\Sounds_F\arsenal\weapons\Pistols\P07\P07_tail_houses",1,1,1200};
						frequency = 1;
						volume = "(1-interior/1.4)*houses";
					};
				};
			};
			class SilencedSound: BaseSoundModeType
			{
				class SoundTails
				{
					class TailInterior
					{
						sound[] = {"A3\Sounds_F\arsenal\weapons\Pistols\P07\Silencer_P07_tail_interior",1,1,400};
						frequency = 1;
						volume = "interior";
					};
					class TailTrees
					{
						sound[] = {"A3\Sounds_F\arsenal\weapons\Pistols\P07\Silencer_P07_tail_trees",1,1,400};
						frequency = 1;
						volume = "(1-interior/1.4)*trees";
					};
					class TailForest
					{
						sound[] = {"A3\Sounds_F\arsenal\weapons\Pistols\P07\Silencer_P07_tail_forest",1,1,400};
						frequency = 1;
						volume = "(1-interior/1.4)*forest";
					};
					class TailMeadows
					{
						sound[] = {"A3\Sounds_F\arsenal\weapons\Pistols\P07\Silencer_P07_tail_meadows",1,1,400};
						frequency = 1;
						volume = "(1-interior/1.4)*(meadows/2 max sea/2)";
					};
					class TailHouses
					{
						sound[] = {"A3\Sounds_F\arsenal\weapons\Pistols\P07\Silencer_P07_tail_houses",1,1,400};
						frequency = 1;
						volume = "(1-interior/1.4)*houses";
					};
				};
			};
		};
	};

	class pdw2000_base_F: Rifle_Short_Base_F
	{
		class Single: Mode_SemiAuto
		{
			class StandardSound: BaseSoundModeType
			{
				class SoundTails
				{
					class TailInterior
					{
						sound[] = {"A3\Sounds_F\arsenal\weapons\SMG\PDW2000\pdw2000_tail_interior",1.58489,1,1000};
						frequency = 1;
						volume = "interior";
					};
					class TailTrees
					{
						sound[] = {"A3\Sounds_F\arsenal\weapons\SMG\PDW2000\pdw2000_tail_trees",1,1,1000};
						frequency = 1;
						volume = "(1-interior/1.4)*trees";
					};
					class TailForest
					{
						sound[] = {"A3\Sounds_F\arsenal\weapons\SMG\PDW2000\pdw2000_tail_forest",1,1,1000};
						frequency = 1;
						volume = "(1-interior/1.4)*forest";
					};
					class TailMeadows
					{
						sound[] = {"A3\Sounds_F\arsenal\weapons\SMG\PDW2000\pdw2000_tail_meadows",1,1,1000};
						frequency = 1;
						volume = "(1-interior/1.4)*(meadows/2 max sea/2)";
					};
					class TailHouses
					{
						sound[] = {"A3\Sounds_F\arsenal\weapons\SMG\PDW2000\pdw2000_tail_houses",1,1,1000};
						frequency = 1;
						volume = "(1-interior/1.4)*houses";
					};
				};
			};
			class SilencedSound: BaseSoundModeType
			{
				class SoundTails
				{
					class TailInterior
					{
						sound[] = {"A3\Sounds_F\arsenal\weapons\SMG\PDW2000\Silencer_pdw2000_Tail_interior",1,1,400};
						frequency = 1;
						volume = "interior";
					};
					class TailTrees
					{
						sound[] = {"A3\Sounds_F\arsenal\weapons\SMG\PDW2000\Silencer_pdw2000_Tail_trees",1,1,400};
						frequency = 1;
						volume = "(1-interior/1.4)*trees";
					};
					class TailForest
					{
						sound[] = {"A3\Sounds_F\arsenal\weapons\SMG\PDW2000\silencer_PDW2000_tail_forest",1,1,400};
						frequency = 1;
						volume = "(1-interior/1.4)*forest";
					};
					class TailMeadows
					{
						sound[] = {"A3\Sounds_F\arsenal\weapons\SMG\PDW2000\Silencer_pdw2000_Tail_meadows",1,1,400};
						frequency = 1;
						volume = "(1-interior/1.4)*(meadows/2 max sea/2)";
					};
					class TailHouses
					{
						sound[] = {"A3\Sounds_F\arsenal\weapons\SMG\PDW2000\Silencer_pdw2000_Tail_houses",1,1,400};
						frequency = 1;
						volume = "(1-interior/1.4)*houses";
					};
				};
			};
		};
		class Burst: Mode_Burst
		{
			class StandardSound: BaseSoundModeType
			{
				class SoundTails
				{
					class TailInterior
					{
						sound[] = {"A3\Sounds_F\arsenal\weapons\SMG\PDW2000\pdw2000_tail_interior",1.58489,1,1000};
						frequency = 1;
						volume = "interior";
					};
					class TailTrees
					{
						sound[] = {"A3\Sounds_F\arsenal\weapons\SMG\PDW2000\pdw2000_tail_trees",1,1,1000};
						frequency = 1;
						volume = "(1-interior/1.4)*trees";
					};
					class TailForest
					{
						sound[] = {"A3\Sounds_F\arsenal\weapons\SMG\PDW2000\pdw2000_tail_forest",1,1,1000};
						frequency = 1;
						volume = "(1-interior/1.4)*forest";
					};
					class TailMeadows
					{
						sound[] = {"A3\Sounds_F\arsenal\weapons\SMG\PDW2000\pdw2000_tail_meadows",1,1,1000};
						frequency = 1;
						volume = "(1-interior/1.4)*(meadows/2 max sea/2)";
					};
					class TailHouses
					{
						sound[] = {"A3\Sounds_F\arsenal\weapons\SMG\PDW2000\pdw2000_tail_houses",1,1,1000};
						frequency = 1;
						volume = "(1-interior/1.4)*houses";
					};
				};
			};
			class SilencedSound: BaseSoundModeType
			{
				class SoundTails
				{
					class TailInterior
					{
						sound[] = {"A3\Sounds_F\arsenal\weapons\SMG\PDW2000\Silencer_pdw2000_Tail_interior",1,1,400};
						frequency = 1;
						volume = "interior";
					};
					class TailTrees
					{
						sound[] = {"A3\Sounds_F\arsenal\weapons\SMG\PDW2000\Silencer_pdw2000_Tail_trees",1,1,400};
						frequency = 1;
						volume = "(1-interior/1.4)*trees";
					};
					class TailForest
					{
						sound[] = {"A3\Sounds_F\arsenal\weapons\SMG\PDW2000\silencer_PDW2000_tail_forest",1,1,400};
						frequency = 1;
						volume = "(1-interior/1.4)*forest";
					};
					class TailMeadows
					{
						sound[] = {"A3\Sounds_F\arsenal\weapons\SMG\PDW2000\Silencer_pdw2000_Tail_meadows",1,1,400};
						frequency = 1;
						volume = "(1-interior/1.4)*(meadows/2 max sea/2)";
					};
					class TailHouses
					{
						sound[] = {"A3\Sounds_F\arsenal\weapons\SMG\PDW2000\Silencer_pdw2000_Tail_houses",1,1,400};
						frequency = 1;
						volume = "(1-interior/1.4)*houses";
					};
				};
			};
		};
		class FullAuto: Mode_FullAuto
		{
			class StandardSound: BaseSoundModeType
			{
				class SoundTails
				{
					class TailInterior
					{
						sound[] = {"A3\Sounds_F\arsenal\weapons\SMG\PDW2000\pdw2000_tail_interior",1.58489,1,1000};
						frequency = 1;
						volume = "interior";
					};
					class TailTrees
					{
						sound[] = {"A3\Sounds_F\arsenal\weapons\SMG\PDW2000\pdw2000_tail_trees",1,1,1000};
						frequency = 1;
						volume = "(1-interior/1.4)*trees";
					};
					class TailForest
					{
						sound[] = {"A3\Sounds_F\arsenal\weapons\SMG\PDW2000\pdw2000_tail_forest",1,1,1000};
						frequency = 1;
						volume = "(1-interior/1.4)*forest";
					};
					class TailMeadows
					{
						sound[] = {"A3\Sounds_F\arsenal\weapons\SMG\PDW2000\pdw2000_tail_meadows",1,1,1000};
						frequency = 1;
						volume = "(1-interior/1.4)*(meadows/2 max sea/2)";
					};
					class TailHouses
					{
						sound[] = {"A3\Sounds_F\arsenal\weapons\SMG\PDW2000\pdw2000_tail_houses",1,1,1000};
						frequency = 1;
						volume = "(1-interior/1.4)*houses";
					};
				};
			};
			class SilencedSound: BaseSoundModeType
			{
				class SoundTails
				{
					class TailInterior
					{
						sound[] = {"A3\Sounds_F\arsenal\weapons\SMG\PDW2000\Silencer_pdw2000_Tail_interior",1,1,400};
						frequency = 1;
						volume = "interior";
					};
					class TailTrees
					{
						sound[] = {"A3\Sounds_F\arsenal\weapons\SMG\PDW2000\Silencer_pdw2000_Tail_trees",1,1,400};
						frequency = 1;
						volume = "(1-interior/1.4)*trees";
					};
					class TailForest
					{
						sound[] = {"A3\Sounds_F\arsenal\weapons\SMG\PDW2000\silencer_PDW2000_tail_forest",1,1,400};
						frequency = 1;
						volume = "(1-interior/1.4)*forest";
					};
					class TailMeadows
					{
						sound[] = {"A3\Sounds_F\arsenal\weapons\SMG\PDW2000\Silencer_pdw2000_Tail_meadows",1,1,400};
						frequency = 1;
						volume = "(1-interior/1.4)*(meadows/2 max sea/2)";
					};
					class TailHouses
					{
						sound[] = {"A3\Sounds_F\arsenal\weapons\SMG\PDW2000\Silencer_pdw2000_Tail_houses",1,1,400};
						frequency = 1;
						volume = "(1-interior/1.4)*houses";
					};
				};
			};
		};
	};
	class SMG_01_Base: Rifle_Short_Base_F
	{
		class Single: Mode_SemiAuto
		{
			class StandardSound: BaseSoundModeType
			{
				class SoundTails
				{
					class TailInterior
					{
						sound[] = {"A3\Sounds_F\arsenal\weapons\SMG\Vermin\Vermin_tail_interior",1.58489,1,1200};
						frequency = 1;
						volume = "interior";
					};
					class TailTrees
					{
						sound[] = {"A3\Sounds_F\arsenal\weapons\SMG\Vermin\Vermin_tail_trees",1,1,1200};
						frequency = 1;
						volume = "(1-interior/1.4)*trees";
					};
					class TailForest
					{
						sound[] = {"A3\Sounds_F\arsenal\weapons\SMG\Vermin\Vermin_tail_forest",1,1,1200};
						frequency = 1;
						volume = "(1-interior/1.4)*forest";
					};
					class TailMeadows
					{
						sound[] = {"A3\Sounds_F\arsenal\weapons\SMG\Vermin\Vermin_tail_meadows",1,1,1200};
						frequency = 1;
						volume = "(1-interior/1.4)*(meadows/2 max sea/2)";
					};
					class TailHouses
					{
						sound[] = {"A3\Sounds_F\arsenal\weapons\SMG\Vermin\Vermin_tail_houses",1,1,1200};
						frequency = 1;
						volume = "(1-interior/1.4)*houses";
					};
				};
			};
			class SilencedSound: BaseSoundModeType
			{
				class SoundTails
				{
					class TailInterior
					{
						sound[] = {"A3\Sounds_F\arsenal\weapons\SMG\Vermin\Silencer_Vermin_tail_interior",1,1,400};
						frequency = 1;
						volume = "interior";
					};
					class TailTrees
					{
						sound[] = {"A3\Sounds_F\arsenal\weapons\SMG\Vermin\Silencer_Vermin_Tail_trees",1,1,400};
						frequency = 1;
						volume = "(1-interior/1.4)*trees";
					};
					class TailForest
					{
						sound[] = {"A3\Sounds_F\arsenal\weapons\SMG\Vermin\silencer_Vermin_tail_forest",1,1,400};
						frequency = 1;
						volume = "(1-interior/1.4)*forest";
					};
					class TailMeadows
					{
						sound[] = {"A3\Sounds_F\arsenal\weapons\SMG\Vermin\Silencer_Vermin_Tail_meadows",1,1,400};
						frequency = 1;
						volume = "(1-interior/1.4)*(meadows/2 max sea/2)";
					};
					class TailHouses
					{
						sound[] = {"A3\Sounds_F\arsenal\weapons\SMG\Vermin\Silencer_Vermin_Tail_houses",1,1,400};
						frequency = 1;
						volume = "(1-interior/1.4)*houses";
					};
				};
			};
		};
		class Burst: Mode_Burst
		{
			class StandardSound: BaseSoundModeType
			{
				class SoundTails
				{
					class TailInterior
					{
						sound[] = {"A3\Sounds_F\arsenal\weapons\SMG\Vermin\Vermin_tail_interior",1.58489,1,1200};
						frequency = 1;
						volume = "interior";
					};
					class TailTrees
					{
						sound[] = {"A3\Sounds_F\arsenal\weapons\SMG\Vermin\Vermin_tail_trees",1,1,1200};
						frequency = 1;
						volume = "(1-interior/1.4)*trees";
					};
					class TailForest
					{
						sound[] = {"A3\Sounds_F\arsenal\weapons\SMG\Vermin\Vermin_tail_forest",1,1,1200};
						frequency = 1;
						volume = "(1-interior/1.4)*forest";
					};
					class TailMeadows
					{
						sound[] = {"A3\Sounds_F\arsenal\weapons\SMG\Vermin\Vermin_tail_meadows",1,1,1200};
						frequency = 1;
						volume = "(1-interior/1.4)*(meadows/2 max sea/2)";
					};
					class TailHouses
					{
						sound[] = {"A3\Sounds_F\arsenal\weapons\SMG\Vermin\Vermin_tail_houses",1,1,1200};
						frequency = 1;
						volume = "(1-interior/1.4)*houses";
					};
				};
			};
			class SilencedSound: BaseSoundModeType
			{
				class SoundTails
				{
					class TailInterior
					{
						sound[] = {"A3\Sounds_F\arsenal\weapons\SMG\Vermin\Silencer_Vermin_tail_interior",1,1,400};
						frequency = 1;
						volume = "interior";
					};
					class TailTrees
					{
						sound[] = {"A3\Sounds_F\arsenal\weapons\SMG\Vermin\Silencer_Vermin_Tail_trees",1,1,400};
						frequency = 1;
						volume = "(1-interior/1.4)*trees";
					};
					class TailForest
					{
						sound[] = {"A3\Sounds_F\arsenal\weapons\SMG\Vermin\silencer_Vermin_tail_forest",1,1,400};
						frequency = 1;
						volume = "(1-interior/1.4)*forest";
					};
					class TailMeadows
					{
						sound[] = {"A3\Sounds_F\arsenal\weapons\SMG\Vermin\Silencer_Vermin_Tail_meadows",1,1,400};
						frequency = 1;
						volume = "(1-interior/1.4)*(meadows/2 max sea/2)";
					};
					class TailHouses
					{
						sound[] = {"A3\Sounds_F\arsenal\weapons\SMG\Vermin\Silencer_Vermin_Tail_houses",1,1,400};
						frequency = 1;
						volume = "(1-interior/1.4)*houses";
					};
				};
			};
		};
		class FullAuto: Mode_FullAuto
		{
			class StandardSound: BaseSoundModeType
			{
				class SoundTails
				{
					class TailInterior
					{
						sound[] = {"A3\Sounds_F\arsenal\weapons\SMG\Vermin\Vermin_tail_interior",1.58489,1,1200};
						frequency = 1;
						volume = "interior";
					};
					class TailTrees
					{
						sound[] = {"A3\Sounds_F\arsenal\weapons\SMG\Vermin\Vermin_tail_trees",1,1,1200};
						frequency = 1;
						volume = "(1-interior/1.4)*trees";
					};
					class TailForest
					{
						sound[] = {"A3\Sounds_F\arsenal\weapons\SMG\Vermin\Vermin_tail_forest",1,1,1200};
						frequency = 1;
						volume = "(1-interior/1.4)*forest";
					};
					class TailMeadows
					{
						sound[] = {"A3\Sounds_F\arsenal\weapons\SMG\Vermin\Vermin_tail_meadows",1,1,1200};
						frequency = 1;
						volume = "(1-interior/1.4)*(meadows/2 max sea/2)";
					};
					class TailHouses
					{
						sound[] = {"A3\Sounds_F\arsenal\weapons\SMG\Vermin\Vermin_tail_houses",1,1,1200};
						frequency = 1;
						volume = "(1-interior/1.4)*houses";
					};
				};
			};
			class SilencedSound: BaseSoundModeType
			{
				class SoundTails
				{
					class TailInterior
					{
						sound[] = {"A3\Sounds_F\arsenal\weapons\SMG\Vermin\Silencer_Vermin_tail_interior",1,1,400};
						frequency = 1;
						volume = "interior";
					};
					class TailTrees
					{
						sound[] = {"A3\Sounds_F\arsenal\weapons\SMG\Vermin\Silencer_Vermin_Tail_trees",1,1,400};
						frequency = 1;
						volume = "(1-interior/1.4)*trees";
					};
					class TailForest
					{
						sound[] = {"A3\Sounds_F\arsenal\weapons\SMG\Vermin\silencer_Vermin_tail_forest",1,1,400};
						frequency = 1;
						volume = "(1-interior/1.4)*forest";
					};
					class TailMeadows
					{
						sound[] = {"A3\Sounds_F\arsenal\weapons\SMG\Vermin\Silencer_Vermin_Tail_meadows",1,1,400};
						frequency = 1;
						volume = "(1-interior/1.4)*(meadows/2 max sea/2)";
					};
					class TailHouses
					{
						sound[] = {"A3\Sounds_F\arsenal\weapons\SMG\Vermin\Silencer_Vermin_Tail_houses",1,1,400};
						frequency = 1;
						volume = "(1-interior/1.4)*houses";
					};
				};
			};
		};
	};
	class SMG_02_base_F: Rifle_Base_F
	{
		class Single: Mode_SemiAuto
		{
			class StandardSound: BaseSoundModeType
			{
				class SoundTails
				{
					class TailInterior
					{
						sound[] = {"A3\Sounds_F\arsenal\weapons\SMG\Sting\Sting_tail_interior",1.58489,1,1200};
						frequency = 1;
						volume = "interior";
					};
					class TailTrees
					{
						sound[] = {"A3\Sounds_F\arsenal\weapons\SMG\Sting\Sting_tail_trees",1,1,1200};
						frequency = 1;
						volume = "(1-interior/1.4)*trees";
					};
					class TailForest
					{
						sound[] = {"A3\Sounds_F\arsenal\weapons\SMG\Sting\Sting_tail_forest",1,1,1200};
						frequency = 1;
						volume = "(1-interior/1.4)*forest";
					};
					class TailMeadows
					{
						sound[] = {"A3\Sounds_F\arsenal\weapons\SMG\Sting\Sting_tail_meadows",1,1,1200};
						frequency = 1;
						volume = "(1-interior/1.4)*(meadows/2 max sea/2)";
					};
					class TailHouses
					{
						sound[] = {"A3\Sounds_F\arsenal\weapons\SMG\Sting\Sting_tail_houses",1,1,1200};
						frequency = 1;
						volume = "(1-interior/1.4)*houses";
					};
				};
			};
			class SilencedSound: BaseSoundModeType
			{
				class SoundTails
				{
					class TailInterior
					{
						sound[] = {"A3\Sounds_F\arsenal\weapons\SMG\Sting\Silencer_Sting_Tail_interior",1,1,400};
						frequency = 1;
						volume = "interior";
					};
					class TailTrees
					{
						sound[] = {"A3\Sounds_F\arsenal\weapons\SMG\Sting\Silencer_Sting_Tail_trees",1,1,400};
						frequency = 1;
						volume = "(1-interior/1.4)*trees";
					};
					class TailForest
					{
						sound[] = {"A3\Sounds_F\arsenal\weapons\SMG\Sting\silencer_Sting_tail_forest",1,1,400};
						frequency = 1;
						volume = "(1-interior/1.4)*forest";
					};
					class TailMeadows
					{
						sound[] = {"A3\Sounds_F\arsenal\weapons\SMG\Sting\Silencer_Sting_Tail_meadows",1,1,400};
						frequency = 1;
						volume = "(1-interior/1.4)*(meadows/2 max sea/2)";
					};
					class TailHouses
					{
						sound[] = {"A3\Sounds_F\arsenal\weapons\SMG\Sting\Silencer_Sting_Tail_houses",1,1,400};
						frequency = 1;
						volume = "(1-interior/1.4)*houses";
					};
				};
			};
		};
		class Burst: Mode_Burst
		{
			class StandardSound: BaseSoundModeType
			{
				class SoundTails
				{
					class TailInterior
					{
						sound[] = {"A3\Sounds_F\arsenal\weapons\SMG\Sting\Sting_tail_interior",1.58489,1,1200};
						frequency = 1;
						volume = "interior";
					};
					class TailTrees
					{
						sound[] = {"A3\Sounds_F\arsenal\weapons\SMG\Sting\Sting_tail_trees",1,1,1200};
						frequency = 1;
						volume = "(1-interior/1.4)*trees";
					};
					class TailForest
					{
						sound[] = {"A3\Sounds_F\arsenal\weapons\SMG\Sting\Sting_tail_forest",1,1,1200};
						frequency = 1;
						volume = "(1-interior/1.4)*forest";
					};
					class TailMeadows
					{
						sound[] = {"A3\Sounds_F\arsenal\weapons\SMG\Sting\Sting_tail_meadows",1,1,1200};
						frequency = 1;
						volume = "(1-interior/1.4)*(meadows/2 max sea/2)";
					};
					class TailHouses
					{
						sound[] = {"A3\Sounds_F\arsenal\weapons\SMG\Sting\Sting_tail_houses",1,1,1200};
						frequency = 1;
						volume = "(1-interior/1.4)*houses";
					};
				};
			};
			class SilencedSound: BaseSoundModeType
			{
				class SoundTails
				{
					class TailInterior
					{
						sound[] = {"A3\Sounds_F\arsenal\weapons\SMG\Sting\Silencer_Sting_Tail_interior",1,1,400};
						frequency = 1;
						volume = "interior";
					};
					class TailTrees
					{
						sound[] = {"A3\Sounds_F\arsenal\weapons\SMG\Sting\Silencer_Sting_Tail_trees",1,1,400};
						frequency = 1;
						volume = "(1-interior/1.4)*trees";
					};
					class TailForest
					{
						sound[] = {"A3\Sounds_F\arsenal\weapons\SMG\Sting\silencer_Sting_tail_forest",1,1,400};
						frequency = 1;
						volume = "(1-interior/1.4)*forest";
					};
					class TailMeadows
					{
						sound[] = {"A3\Sounds_F\arsenal\weapons\SMG\Sting\Silencer_Sting_Tail_meadows",1,1,400};
						frequency = 1;
						volume = "(1-interior/1.4)*(meadows/2 max sea/2)";
					};
					class TailHouses
					{
						sound[] = {"A3\Sounds_F\arsenal\weapons\SMG\Sting\Silencer_Sting_Tail_houses",1,1,400};
						frequency = 1;
						volume = "(1-interior/1.4)*houses";
					};
				};
			};
		};
		class FullAuto: Mode_FullAuto
		{
			class StandardSound: BaseSoundModeType
			{
				class SoundTails
				{
					class TailInterior
					{
						sound[] = {"A3\Sounds_F\arsenal\weapons\SMG\Sting\Sting_tail_interior",1.58489,1,1200};
						frequency = 1;
						volume = "interior";
					};
					class TailTrees
					{
						sound[] = {"A3\Sounds_F\arsenal\weapons\SMG\Sting\Sting_tail_trees",1,1,1200};
						frequency = 1;
						volume = "(1-interior/1.4)*trees";
					};
					class TailForest
					{
						sound[] = {"A3\Sounds_F\arsenal\weapons\SMG\Sting\Sting_tail_forest",1,1,1200};
						frequency = 1;
						volume = "(1-interior/1.4)*forest";
					};
					class TailMeadows
					{
						sound[] = {"A3\Sounds_F\arsenal\weapons\SMG\Sting\Sting_tail_meadows",1,1,1200};
						frequency = 1;
						volume = "(1-interior/1.4)*(meadows/2 max sea/2)";
					};
					class TailHouses
					{
						sound[] = {"A3\Sounds_F\arsenal\weapons\SMG\Sting\Sting_tail_houses",1,1,1200};
						frequency = 1;
						volume = "(1-interior/1.4)*houses";
					};
				};
			};
			class SilencedSound: BaseSoundModeType
			{
				class SoundTails
				{
					class TailInterior
					{
						sound[] = {"A3\Sounds_F\arsenal\weapons\SMG\Sting\Silencer_Sting_Tail_interior",1,1,400};
						frequency = 1;
						volume = "interior";
					};
					class TailTrees
					{
						sound[] = {"A3\Sounds_F\arsenal\weapons\SMG\Sting\Silencer_Sting_Tail_trees",1,1,400};
						frequency = 1;
						volume = "(1-interior/1.4)*trees";
					};
					class TailForest
					{
						sound[] = {"A3\Sounds_F\arsenal\weapons\SMG\Sting\silencer_Sting_tail_forest",1,1,400};
						frequency = 1;
						volume = "(1-interior/1.4)*forest";
					};
					class TailMeadows
					{
						sound[] = {"A3\Sounds_F\arsenal\weapons\SMG\Sting\Silencer_Sting_Tail_meadows",1,1,400};
						frequency = 1;
						volume = "(1-interior/1.4)*(meadows/2 max sea/2)";
					};
					class TailHouses
					{
						sound[] = {"A3\Sounds_F\arsenal\weapons\SMG\Sting\Silencer_Sting_Tail_houses",1,1,400};
						frequency = 1;
						volume = "(1-interior/1.4)*houses";
					};
				};
			};
		};
	};

	class DMR_01_base_F: Rifle_Long_Base_F
	{
		class Single: Mode_SemiAuto
		{
			class StandardSound: BaseSoundModeType
			{
				class SoundTails
				{
					class TailForest
					{
						sound[] = {"A3\Sounds_F\arsenal\weapons\LongRangeRifles\DMR_01_Rahim\DMR_01_tail_forest",1,1,2000};
						frequency = 1;
						volume = "(1-interior/1.4)*forest";
					};
					class TailHouses
					{
						sound[] = {"A3\Sounds_F\arsenal\weapons\LongRangeRifles\DMR_01_Rahim\DMR_01_tail_houses",1,1,2000};
						frequency = 1;
						volume = "(1-interior/1.4)*houses";
					};
					class TailInterior
					{
						sound[] = {"A3\Sounds_F\arsenal\weapons\LongRangeRifles\DMR_01_Rahim\DMR_01_tail_interior",1.99526,1,2000};
						frequency = 1;
						volume = "interior";
					};
					class TailMeadows
					{
						sound[] = {"A3\Sounds_F\arsenal\weapons\LongRangeRifles\DMR_01_Rahim\DMR_01_tail_meadows",1,1,2000};
						frequency = 1;
						volume = "(1-interior/1.4)*(meadows/2 max sea/2)";
					};
					class TailTrees
					{
						sound[] = {"A3\Sounds_F\arsenal\weapons\LongRangeRifles\DMR_01_Rahim\DMR_01_tail_trees",1,1,2000};
						frequency = 1;
						volume = "(1-interior/1.4)*trees";
					};
				};
			};
			class SilencedSound: BaseSoundModeType
			{
				class SoundTails
				{
					class TailForest
					{
						sound[] = {"A3\Sounds_F\arsenal\weapons\LongRangeRifles\DMR_01_Rahim\silencer_DMR_01_tail_forest",1,1,600};
						frequency = 1;
						volume = "(1-interior/1.4)*forest";
					};
					class TailHouses
					{
						sound[] = {"A3\Sounds_F\arsenal\weapons\LongRangeRifles\DMR_01_Rahim\silencer_DMR_01_tail_houses",1,1,600};
						frequency = 1;
						volume = "(1-interior/1.4)*houses";
					};
					class TailInterior
					{
						sound[] = {"A3\Sounds_F\arsenal\weapons\LongRangeRifles\DMR_01_Rahim\silencer_DMR_01_tail_interior",1,1,600};
						frequency = 1;
						volume = "interior";
					};
					class TailMeadows
					{
						sound[] = {"A3\Sounds_F\arsenal\weapons\LongRangeRifles\DMR_01_Rahim\silencer_DMR_01_tail_meadows",1,1,600};
						frequency = 1;
						volume = "(1-interior/1.4)*(meadows/2 max sea/2)";
					};
					class TailTrees
					{
						sound[] = {"A3\Sounds_F\arsenal\weapons\LongRangeRifles\DMR_01_Rahim\silencer_DMR_01_tail_trees",1,1,600};
						frequency = 1;
						volume = "(1-interior/1.4)*trees";
					};
				};
			};
		};
		class FullAuto: Mode_FullAuto
		{
			class StandardSound: BaseSoundModeType
			{
				class SoundTails
				{
					class TailForest
					{
						sound[] = {"A3\Sounds_F\arsenal\weapons\LongRangeRifles\DMR_01_Rahim\DMR_01_tail_forest",1,1,2000};
						frequency = 1;
						volume = "(1-interior/1.4)*forest";
					};
					class TailHouses
					{
						sound[] = {"A3\Sounds_F\arsenal\weapons\LongRangeRifles\DMR_01_Rahim\DMR_01_tail_houses",1,1,2000};
						frequency = 1;
						volume = "(1-interior/1.4)*houses";
					};
					class TailInterior
					{
						sound[] = {"A3\Sounds_F\arsenal\weapons\LongRangeRifles\DMR_01_Rahim\DMR_01_tail_interior",1,1,2000};
						frequency = 1;
						volume = "interior";
					};
					class TailMeadows
					{
						sound[] = {"A3\Sounds_F\arsenal\weapons\LongRangeRifles\DMR_01_Rahim\DMR_01_tail_meadows",1,1,2000};
						frequency = 1;
						volume = "(1-interior/1.4)*(meadows/2 max sea/2)";
					};
					class TailTrees
					{
						sound[] = {"A3\Sounds_F\arsenal\weapons\LongRangeRifles\DMR_01_Rahim\DMR_01_tail_trees",1,1,2000};
						frequency = 1;
						volume = "(1-interior/1.4)*trees";
					};
				};
			};
			class SilencedSound: BaseSoundModeType
			{
				class SoundTails
				{
					class TailForest
					{
						sound[] = {"A3\Sounds_F\arsenal\weapons\LongRangeRifles\DMR_01_Rahim\silencer_DMR_01_tail_forest",1,1,600};
						frequency = 1;
						volume = "(1-interior/1.4)*forest";
					};
					class TailHouses
					{
						sound[] = {"A3\Sounds_F\arsenal\weapons\LongRangeRifles\DMR_01_Rahim\silencer_DMR_01_tail_houses",1,1,600};
						frequency = 1;
						volume = "(1-interior/1.4)*houses";
					};
					class TailInterior
					{
						sound[] = {"A3\Sounds_F\arsenal\weapons\LongRangeRifles\DMR_01_Rahim\silencer_DMR_01_tail_interior",1,1,600};
						frequency = 1;
						volume = "interior";
					};
					class TailMeadows
					{
						sound[] = {"A3\Sounds_F\arsenal\weapons\LongRangeRifles\DMR_01_Rahim\silencer_DMR_01_tail_meadows",1,1,600};
						frequency = 1;
						volume = "(1-interior/1.4)*(meadows/2 max sea/2)";
					};
					class TailTrees
					{
						sound[] = {"A3\Sounds_F\arsenal\weapons\LongRangeRifles\DMR_01_Rahim\silencer_DMR_01_tail_trees",1,1,600};
						frequency = 1;
						volume = "(1-interior/1.4)*trees";
					};
				};
			};
		};
	};
	class DMR_02_base_F: Rifle_Long_Base_F
	{
		class Single: Mode_SemiAuto
		{
			class StandardSound: BaseSoundModeType
			{
				class SoundTails
				{
					class TailInterior
					{
						sound[] = {"A3\Sounds_F_Mark\arsenal\weapons\LongRangeRifles\DMR_02_MAR10\DMR_02_tail_interior",2.23872,1,2200};
						frequency = 1;
						volume = "interior";
					};
					class TailTrees
					{
						sound[] = {"A3\Sounds_F_Mark\arsenal\weapons\LongRangeRifles\DMR_02_MAR10\DMR_02_tail_trees",2.23872,1,2200};
						frequency = 1;
						volume = "(1-interior/1.4)*trees";
					};
					class TailForest
					{
						sound[] = {"A3\Sounds_F_Mark\arsenal\weapons\LongRangeRifles\DMR_02_MAR10\DMR_02_tail_forest",2.23872,1,2200};
						frequency = 1;
						volume = "(1-interior/1.4)*forest";
					};
					class TailMeadows
					{
						sound[] = {"A3\Sounds_F_Mark\arsenal\weapons\LongRangeRifles\DMR_02_MAR10\DMR_02_tail_meadows",2.23872,1,2200};
						frequency = 1;
						volume = "(1-interior/1.4)*(meadows/2 max sea/2)";
					};
					class TailHouses
					{
						sound[] = {"A3\Sounds_F_Mark\arsenal\weapons\LongRangeRifles\DMR_02_MAR10\DMR_02_tail_houses",2.23872,1,2200};
						frequency = 1;
						volume = "(1-interior/1.4)*houses";
					};
				};
			};
			class SilencedSound: BaseSoundModeType
			{
				class SoundTails
				{
					class TailInterior
					{
						sound[] = {"A3\Sounds_F_Mark\arsenal\weapons\LongRangeRifles\DMR_02_MAR10\silencer_DMR_02_tail_interior",1,1,500};
						frequency = 1;
						volume = "interior";
					};
					class TailTrees
					{
						sound[] = {"A3\Sounds_F_Mark\arsenal\weapons\LongRangeRifles\DMR_02_MAR10\silencer_DMR_02_tail_trees",1,1,500};
						frequency = 1;
						volume = "(1-interior/1.4)*trees";
					};
					class TailForest
					{
						sound[] = {"A3\Sounds_F_Mark\arsenal\weapons\LongRangeRifles\DMR_02_MAR10\silencer_DMR_02_tail_forest",1,1,500};
						frequency = 1;
						volume = "(1-interior/1.4)*forest";
					};
					class TailMeadows
					{
						sound[] = {"A3\Sounds_F_Mark\arsenal\weapons\LongRangeRifles\DMR_02_MAR10\silencer_DMR_02_tail_meadows",1,1,500};
						frequency = 1;
						volume = "(1-interior/1.4)*(meadows/2 max sea/2)";
					};
					class TailHouses
					{
						sound[] = {"A3\Sounds_F_Mark\arsenal\weapons\LongRangeRifles\DMR_02_MAR10\silencer_DMR_02_tail_houses",1,1,500};
						frequency = 1;
						volume = "(1-interior/1.4)*houses";
					};
				};
			};
		};
	};
	class DMR_03_base_F: Rifle_Long_Base_F
	{
		class Single: Mode_SemiAuto
		{
			class StandardSound: BaseSoundModeType
			{
				class SoundTails
				{
					class TailInterior
					{
						sound[] = {"A3\Sounds_F_Mark\arsenal\weapons\LongRangeRifles\DMR_03_MkI_EMR\DMR_03_tail_interior",1.99526,1,1800};
						frequency = 1;
						volume = "interior";
					};
					class TailTrees
					{
						sound[] = {"A3\Sounds_F_Mark\arsenal\weapons\LongRangeRifles\DMR_03_MkI_EMR\DMR_03_tail_trees",1,1,1800};
						frequency = 1;
						volume = "(1-interior/1.4)*trees";
					};
					class TailForest
					{
						sound[] = {"A3\Sounds_F_Mark\arsenal\weapons\LongRangeRifles\DMR_03_MkI_EMR\DMR_03_tail_forest",1,1,1800};
						frequency = 1;
						volume = "(1-interior/1.4)*forest";
					};
					class TailMeadows
					{
						sound[] = {"A3\Sounds_F_Mark\arsenal\weapons\LongRangeRifles\DMR_03_MkI_EMR\DMR_03_tail_meadows",1,1,1800};
						frequency = 1;
						volume = "(1-interior/1.4)*(meadows/2 max sea/2)";
					};
					class TailHouses
					{
						sound[] = {"A3\Sounds_F_Mark\arsenal\weapons\LongRangeRifles\DMR_03_MkI_EMR\DMR_03_tail_houses",1,1,1800};
						frequency = 1;
						volume = "(1-interior/1.4)*houses";
					};
				};
			};
			class SilencedSound: BaseSoundModeType
			{
				class SoundTails
				{
					class TailInterior
					{
						sound[] = {"A3\Sounds_F_Mark\arsenal\weapons\LongRangeRifles\DMR_03_MkI_EMR\silencer_DMR_03_tail_interior",1.99526,1,400};
						frequency = 1;
						volume = "interior";
					};
					class TailTrees
					{
						sound[] = {"A3\Sounds_F_Mark\arsenal\weapons\LongRangeRifles\DMR_03_MkI_EMR\silencer_DMR_03_tail_trees",1,1,400};
						frequency = 1;
						volume = "(1-interior/1.4)*trees";
					};
					class TailForest
					{
						sound[] = {"A3\Sounds_F_Mark\arsenal\weapons\LongRangeRifles\DMR_03_MkI_EMR\silencer_DMR_03_tail_forest",1,1,400};
						frequency = 1;
						volume = "(1-interior/1.4)*forest";
					};
					class TailMeadows
					{
						sound[] = {"A3\Sounds_F_Mark\arsenal\weapons\LongRangeRifles\DMR_03_MkI_EMR\silencer_DMR_03_tail_meadows",1,1,400};
						frequency = 1;
						volume = "(1-interior/1.4)*(meadows/2 max sea/2)";
					};
					class TailHouses
					{
						sound[] = {"A3\Sounds_F_Mark\arsenal\weapons\LongRangeRifles\DMR_03_MkI_EMR\silencer_DMR_03_tail_houses",1,1,400};
						frequency = 1;
						volume = "(1-interior/1.4)*houses";
					};
				};
			};
		};
		class FullAuto: Mode_FullAuto
		{
			class StandardSound: BaseSoundModeType
			{
				class SoundTails
				{
					class TailInterior
					{
						sound[] = {"A3\Sounds_F_Mark\arsenal\weapons\LongRangeRifles\DMR_03_MkI_EMR\DMR_03_tail_interior",1.99526,1,1800};
						frequency = 1;
						volume = "interior";
					};
					class TailTrees
					{
						sound[] = {"A3\Sounds_F_Mark\arsenal\weapons\LongRangeRifles\DMR_03_MkI_EMR\DMR_03_tail_trees",1,1,1800};
						frequency = 1;
						volume = "(1-interior/1.4)*trees";
					};
					class TailForest
					{
						sound[] = {"A3\Sounds_F_Mark\arsenal\weapons\LongRangeRifles\DMR_03_MkI_EMR\DMR_03_tail_forest",1,1,1800};
						frequency = 1;
						volume = "(1-interior/1.4)*forest";
					};
					class TailMeadows
					{
						sound[] = {"A3\Sounds_F_Mark\arsenal\weapons\LongRangeRifles\DMR_03_MkI_EMR\DMR_03_tail_meadows",1,1,1800};
						frequency = 1;
						volume = "(1-interior/1.4)*(meadows/2 max sea/2)";
					};
					class TailHouses
					{
						sound[] = {"A3\Sounds_F_Mark\arsenal\weapons\LongRangeRifles\DMR_03_MkI_EMR\DMR_03_tail_houses",1,1,1800};
						frequency = 1;
						volume = "(1-interior/1.4)*houses";
					};
				};
			};
			class SilencedSound: BaseSoundModeType
			{
				class SoundTails
				{
					class TailInterior
					{
						sound[] = {"A3\Sounds_F_Mark\arsenal\weapons\LongRangeRifles\DMR_03_MkI_EMR\silencer_DMR_03_tail_interior",1.99526,1,400};
						frequency = 1;
						volume = "interior";
					};
					class TailTrees
					{
						sound[] = {"A3\Sounds_F_Mark\arsenal\weapons\LongRangeRifles\DMR_03_MkI_EMR\silencer_DMR_03_tail_trees",1,1,400};
						frequency = 1;
						volume = "(1-interior/1.4)*trees";
					};
					class TailForest
					{
						sound[] = {"A3\Sounds_F_Mark\arsenal\weapons\LongRangeRifles\DMR_03_MkI_EMR\silencer_DMR_03_tail_forest",1,1,400};
						frequency = 1;
						volume = "(1-interior/1.4)*forest";
					};
					class TailMeadows
					{
						sound[] = {"A3\Sounds_F_Mark\arsenal\weapons\LongRangeRifles\DMR_03_MkI_EMR\silencer_DMR_03_tail_meadows",1,1,400};
						frequency = 1;
						volume = "(1-interior/1.4)*(meadows/2 max sea/2)";
					};
					class TailHouses
					{
						sound[] = {"A3\Sounds_F_Mark\arsenal\weapons\LongRangeRifles\DMR_03_MkI_EMR\silencer_DMR_03_tail_houses",1,1,400};
						frequency = 1;
						volume = "(1-interior/1.4)*houses";
					};
				};
			};
		};
	};
	class DMR_04_base_F: Rifle_Long_Base_F
	{
		class Single: Mode_SemiAuto
		{
			class StandardSound: BaseSoundModeType
			{
				class SoundTails
				{
					class TailInterior
					{
						sound[] = {"A3\Sounds_F_Mark\arsenal\weapons\LongRangeRifles\DMR_04_ASP1_Kir\DMR_04_tail_interior",1.41254,1,300};
						frequency = 1;
						volume = "interior";
					};
					class TailTrees
					{
						sound[] = {"A3\Sounds_F_Mark\arsenal\weapons\LongRangeRifles\DMR_04_ASP1_Kir\DMR_04_tail_trees",1,1,300};
						frequency = 1;
						volume = "(1-interior/1.4)*trees";
					};
					class TailForest
					{
						sound[] = {"A3\Sounds_F_Mark\arsenal\weapons\LongRangeRifles\DMR_04_ASP1_Kir\DMR_04_tail_forest",1,1,300};
						frequency = 1;
						volume = "(1-interior/1.4)*forest";
					};
					class TailMeadows
					{
						sound[] = {"A3\Sounds_F_Mark\arsenal\weapons\LongRangeRifles\DMR_04_ASP1_Kir\DMR_04_tail_meadows",1,1,300};
						frequency = 1;
						volume = "(1-interior/1.4)*(meadows/2 max sea/2)";
					};
					class TailHouses
					{
						sound[] = {"A3\Sounds_F_Mark\arsenal\weapons\LongRangeRifles\DMR_04_ASP1_Kir\DMR_04_tail_houses",1,1,300};
						frequency = 1;
						volume = "(1-interior/1.4)*houses";
					};
				};
			};
		};
	};
	class DMR_05_base_F: Rifle_Long_Base_F
	{
		class Single: Mode_SemiAuto
		{
			class StandardSound: BaseSoundModeType
			{
				class SoundTails
				{
					class TailInterior
					{
						sound[] = {"A3\Sounds_F_Mark\arsenal\weapons\LongRangeRifles\DMR_05_Cyrus\DMR_05_tail_interior",1.41254,1,1200};
						frequency = 1;
						volume = "interior";
					};
					class TailTrees
					{
						sound[] = {"A3\Sounds_F_Mark\arsenal\weapons\LongRangeRifles\DMR_05_Cyrus\DMR_05_tail_trees",1,1,1200};
						frequency = 1;
						volume = "(1-interior/1.4)*trees";
					};
					class TailForest
					{
						sound[] = {"A3\Sounds_F_Mark\arsenal\weapons\LongRangeRifles\DMR_05_Cyrus\DMR_05_tail_forest",1,1,1200};
						frequency = 1;
						volume = "(1-interior/1.4)*forest";
					};
					class TailMeadows
					{
						sound[] = {"A3\Sounds_F_Mark\arsenal\weapons\LongRangeRifles\DMR_05_Cyrus\DMR_05_tail_meadows",1,1,1200};
						frequency = 1;
						volume = "(1-interior/1.4)*(meadows/2 max sea/2)";
					};
					class TailHouses
					{
						sound[] = {"A3\Sounds_F_Mark\arsenal\weapons\LongRangeRifles\DMR_05_Cyrus\DMR_05_tail_houses",1,1,1200};
						frequency = 1;
						volume = "(1-interior/1.4)*houses";
					};
				};
			};
			class SilencedSound: BaseSoundModeType
			{
				class SoundTails
				{
					class TailInterior
					{
						sound[] = {"A3\Sounds_F_Mark\arsenal\weapons\LongRangeRifles\DMR_05_Cyrus\silencer_DMR_05_tail_interior",1,1,300};
						frequency = 1;
						volume = "interior";
					};
					class TailTrees
					{
						sound[] = {"A3\Sounds_F_Mark\arsenal\weapons\LongRangeRifles\DMR_05_Cyrus\silencer_DMR_05_tail_trees",1,1,300};
						frequency = 1;
						volume = "(1-interior/1.4)*trees";
					};
					class TailForest
					{
						sound[] = {"A3\Sounds_F_Mark\arsenal\weapons\LongRangeRifles\DMR_05_Cyrus\silencer_DMR_05_tail_forest",1,1,300};
						frequency = 1;
						volume = "(1-interior/1.4)*forest";
					};
					class TailMeadows
					{
						sound[] = {"A3\Sounds_F_Mark\arsenal\weapons\LongRangeRifles\DMR_05_Cyrus\silencer_DMR_05_tail_meadows",1,1,300};
						frequency = 1;
						volume = "(1-interior/1.4)*(meadows/2 max sea/2)";
					};
					class TailHouses
					{
						sound[] = {"A3\Sounds_F_Mark\arsenal\weapons\LongRangeRifles\DMR_05_Cyrus\silencer_DMR_05_tail_houses",1,1,300};
						frequency = 1;
						volume = "(1-interior/1.4)*houses";
					};
				};
			};
		};
		class FullAuto: Mode_FullAuto
		{
			class StandardSound: BaseSoundModeType
			{
				class SoundTails
				{
					class TailInterior
					{
						sound[] = {"A3\Sounds_F_Mark\arsenal\weapons\LongRangeRifles\DMR_05_Cyrus\DMR_05_tail_interior",1.41254,1,1200};
						frequency = 1;
						volume = "interior";
					};
					class TailTrees
					{
						sound[] = {"A3\Sounds_F_Mark\arsenal\weapons\LongRangeRifles\DMR_05_Cyrus\DMR_05_tail_trees",1,1,1200};
						frequency = 1;
						volume = "(1-interior/1.4)*trees";
					};
					class TailForest
					{
						sound[] = {"A3\Sounds_F_Mark\arsenal\weapons\LongRangeRifles\DMR_05_Cyrus\DMR_05_tail_forest",1,1,1200};
						frequency = 1;
						volume = "(1-interior/1.4)*forest";
					};
					class TailMeadows
					{
						sound[] = {"A3\Sounds_F_Mark\arsenal\weapons\LongRangeRifles\DMR_05_Cyrus\DMR_05_tail_meadows",1,1,1200};
						frequency = 1;
						volume = "(1-interior/1.4)*(meadows/2 max sea/2)";
					};
					class TailHouses
					{
						sound[] = {"A3\Sounds_F_Mark\arsenal\weapons\LongRangeRifles\DMR_05_Cyrus\DMR_05_tail_houses",1,1,1200};
						frequency = 1;
						volume = "(1-interior/1.4)*houses";
					};
				};
			};
			class SilencedSound: BaseSoundModeType
			{
				class SoundTails
				{
					class TailInterior
					{
						sound[] = {"A3\Sounds_F_Mark\arsenal\weapons\LongRangeRifles\DMR_05_Cyrus\silencer_DMR_05_tail_interior",1,1,300};
						frequency = 1;
						volume = "interior";
					};
					class TailTrees
					{
						sound[] = {"A3\Sounds_F_Mark\arsenal\weapons\LongRangeRifles\DMR_05_Cyrus\silencer_DMR_05_tail_trees",1,1,300};
						frequency = 1;
						volume = "(1-interior/1.4)*trees";
					};
					class TailForest
					{
						sound[] = {"A3\Sounds_F_Mark\arsenal\weapons\LongRangeRifles\DMR_05_Cyrus\silencer_DMR_05_tail_forest",1,1,300};
						frequency = 1;
						volume = "(1-interior/1.4)*forest";
					};
					class TailMeadows
					{
						sound[] = {"A3\Sounds_F_Mark\arsenal\weapons\LongRangeRifles\DMR_05_Cyrus\silencer_DMR_05_tail_meadows",1,1,300};
						frequency = 1;
						volume = "(1-interior/1.4)*(meadows/2 max sea/2)";
					};
					class TailHouses
					{
						sound[] = {"A3\Sounds_F_Mark\arsenal\weapons\LongRangeRifles\DMR_05_Cyrus\silencer_DMR_05_tail_houses",1,1,300};
						frequency = 1;
						volume = "(1-interior/1.4)*houses";
					};
				};
			};
		};
	};
	class DMR_06_base_F: Rifle_Long_Base_F
	{
		class Single: Mode_SemiAuto
		{
			class StandardSound: BaseSoundModeType
			{
				class SoundTails
				{
					class TailInterior
					{
						sound[] = {"A3\Sounds_F_Mark\arsenal\weapons\LongRangeRifles\DMR_06_Mk14\DMR_06_tail_interior",1,1,1200};
						frequency = 1;
						volume = "interior";
					};
					class TailTrees
					{
						sound[] = {"A3\Sounds_F_Mark\arsenal\weapons\LongRangeRifles\DMR_06_Mk14\DMR_06_tail_trees",1,1,1200};
						frequency = 1;
						volume = "(1-interior/1.4)*trees";
					};
					class TailForest
					{
						sound[] = {"A3\Sounds_F_Mark\arsenal\weapons\LongRangeRifles\DMR_06_Mk14\DMR_06_tail_forest",1,1,1200};
						frequency = 1;
						volume = "(1-interior/1.4)*forest";
					};
					class TailMeadows
					{
						sound[] = {"A3\Sounds_F_Mark\arsenal\weapons\LongRangeRifles\DMR_06_Mk14\DMR_06_tail_meadows",1,1,1200};
						frequency = 1;
						volume = "(1-interior/1.4)*(meadows/2 max sea/2)";
					};
					class TailHouses
					{
						sound[] = {"A3\Sounds_F_Mark\arsenal\weapons\LongRangeRifles\DMR_06_Mk14\DMR_06_tail_houses",1,1,1200};
						frequency = 1;
						volume = "(1-interior/1.4)*houses";
					};
				};
			};
			class SilencedSound: BaseSoundModeType
			{
				class SoundTails
				{
					class TailInterior
					{
						sound[] = {"A3\Sounds_F_Mark\arsenal\weapons\LongRangeRifles\DMR_06_Mk14\silencer_DMR_06_tail_interior",1,1,400};
						frequency = 1;
						volume = "interior";
					};
					class TailTrees
					{
						sound[] = {"A3\Sounds_F_Mark\arsenal\weapons\LongRangeRifles\DMR_06_Mk14\silencer_DMR_06_tail_trees",1,1,400};
						frequency = 1;
						volume = "(1-interior/1.4)*trees";
					};
					class TailForest
					{
						sound[] = {"A3\Sounds_F_Mark\arsenal\weapons\LongRangeRifles\DMR_06_Mk14\silencer_DMR_06_tail_forest",1,1,400};
						frequency = 1;
						volume = "(1-interior/1.4)*forest";
					};
					class TailMeadows
					{
						sound[] = {"A3\Sounds_F_Mark\arsenal\weapons\LongRangeRifles\DMR_06_Mk14\silencer_DMR_06_tail_meadows",1,1,400};
						frequency = 1;
						volume = "(1-interior/1.4)*(meadows/2 max sea/2)";
					};
					class TailHouses
					{
						sound[] = {"A3\Sounds_F_Mark\arsenal\weapons\LongRangeRifles\DMR_06_Mk14\silencer_DMR_06_tail_houses",1,1,400};
						frequency = 1;
						volume = "(1-interior/1.4)*houses";
					};
				};
			};
		};
		class FullAuto: Mode_FullAuto
		{
			class StandardSound: BaseSoundModeType
			{
				class SoundTails
				{
					class TailInterior
					{
						sound[] = {"A3\Sounds_F_Mark\arsenal\weapons\LongRangeRifles\DMR_06_Mk14\DMR_06_tail_interior",1,1,1200};
						frequency = 1;
						volume = "interior";
					};
					class TailTrees
					{
						sound[] = {"A3\Sounds_F_Mark\arsenal\weapons\LongRangeRifles\DMR_06_Mk14\DMR_06_tail_trees",1,1,1200};
						frequency = 1;
						volume = "(1-interior/1.4)*trees";
					};
					class TailForest
					{
						sound[] = {"A3\Sounds_F_Mark\arsenal\weapons\LongRangeRifles\DMR_06_Mk14\DMR_06_tail_forest",1,1,1200};
						frequency = 1;
						volume = "(1-interior/1.4)*forest";
					};
					class TailMeadows
					{
						sound[] = {"A3\Sounds_F_Mark\arsenal\weapons\LongRangeRifles\DMR_06_Mk14\DMR_06_tail_meadows",1,1,1200};
						frequency = 1;
						volume = "(1-interior/1.4)*(meadows/2 max sea/2)";
					};
					class TailHouses
					{
						sound[] = {"A3\Sounds_F_Mark\arsenal\weapons\LongRangeRifles\DMR_06_Mk14\DMR_06_tail_houses",1,1,1200};
						frequency = 1;
						volume = "(1-interior/1.4)*houses";
					};
				};
			};
			class SilencedSound: BaseSoundModeType
			{
				class SoundTails
				{
					class TailInterior
					{
						sound[] = {"A3\Sounds_F_Mark\arsenal\weapons\LongRangeRifles\DMR_06_Mk14\silencer_DMR_06_tail_interior",1,1,400};
						frequency = 1;
						volume = "interior";
					};
					class TailTrees
					{
						sound[] = {"A3\Sounds_F_Mark\arsenal\weapons\LongRangeRifles\DMR_06_Mk14\silencer_DMR_06_tail_trees",1,1,400};
						frequency = 1;
						volume = "(1-interior/1.4)*trees";
					};
					class TailForest
					{
						sound[] = {"A3\Sounds_F_Mark\arsenal\weapons\LongRangeRifles\DMR_06_Mk14\silencer_DMR_06_tail_forest",1,1,400};
						frequency = 1;
						volume = "(1-interior/1.4)*forest";
					};
					class TailMeadows
					{
						sound[] = {"A3\Sounds_F_Mark\arsenal\weapons\LongRangeRifles\DMR_06_Mk14\silencer_DMR_06_tail_meadows",1,1,400};
						frequency = 1;
						volume = "(1-interior/1.4)*(meadows/2 max sea/2)";
					};
					class TailHouses
					{
						sound[] = {"A3\Sounds_F_Mark\arsenal\weapons\LongRangeRifles\DMR_06_Mk14\silencer_DMR_06_tail_houses",1,1,400};
						frequency = 1;
						volume = "(1-interior/1.4)*houses";
					};
				};
			};
		};
	};

	class EBR_base_F: Rifle_Long_Base_F
	{
		class Single: Mode_SemiAuto
		{
			class StandardSound: BaseSoundModeType
			{
				class SoundTails
				{
					class TailForest
					{
						sound[] = {"A3\Sounds_F\arsenal\weapons\LongRangeRifles\Mk18\Mk18_tail_forest",1,1,2000};
						frequency = 1;
						volume = "(1-interior/1.4)*forest";
					};
					class TailHouses
					{
						sound[] = {"A3\Sounds_F\arsenal\weapons\LongRangeRifles\Mk18\Mk18_tail_houses",1,1,2000};
						frequency = 1;
						volume = "(1-interior/1.4)*houses";
					};
					class TailInterior
					{
						sound[] = {"A3\Sounds_F\arsenal\weapons\LongRangeRifles\Mk18\Mk18_tail_interior",1.58489,1,2000};
						frequency = 1;
						volume = "interior";
					};
					class TailMeadows
					{
						sound[] = {"A3\Sounds_F\arsenal\weapons\LongRangeRifles\Mk18\Mk18_tail_meadows",1,1,2000};
						frequency = 1;
						volume = "(1-interior/1.4)*(meadows/2 max sea/2)";
					};
					class TailTrees
					{
						sound[] = {"A3\Sounds_F\arsenal\weapons\LongRangeRifles\Mk18\Mk18_tail_trees",1,1,2000};
						frequency = 1;
						volume = "(1-interior/1.4)*trees";
					};
				};
			};
			class SilencedSound: BaseSoundModeType
			{
				class SoundTails
				{
					class TailForest
					{
						sound[] = {"A3\Sounds_F\arsenal\weapons\LongRangeRifles\Mk18\silencer_Mk18_tail_forest",1,1,600};
						frequency = 1;
						volume = "(1-interior/1.4)*forest";
					};
					class TailHouses
					{
						sound[] = {"A3\Sounds_F\arsenal\weapons\LongRangeRifles\Mk18\silencer_Mk18_tail_houses",1,1,600};
						frequency = 1;
						volume = "(1-interior/1.4)*houses";
					};
					class TailInterior
					{
						sound[] = {"A3\Sounds_F\arsenal\weapons\LongRangeRifles\Mk18\silencer_Mk18_tail_interior",1,1,600};
						frequency = 1;
						volume = "interior";
					};
					class TailMeadows
					{
						sound[] = {"A3\Sounds_F\arsenal\weapons\LongRangeRifles\Mk18\silencer_Mk18_tail_meadows",1,1,600};
						frequency = 1;
						volume = "(1-interior/1.4)*(meadows/2 max sea/2)";
					};
					class TailTrees
					{
						sound[] = {"A3\Sounds_F\arsenal\weapons\LongRangeRifles\Mk18\silencer_Mk18_tail_trees",1,1,600};
						frequency = 1;
						volume = "(1-interior/1.4)*trees";
					};
				};
			};
		};
		class FullAuto: Mode_FullAuto
		{
			class StandardSound: BaseSoundModeType
			{
				class SoundTails
				{
					class TailForest
					{
						sound[] = {"A3\Sounds_F\arsenal\weapons\LongRangeRifles\Mk18\Mk18_tail_forest",1,1,2000};
						frequency = 1;
						volume = "(1-interior/1.4)*forest";
					};
					class TailHouses
					{
						sound[] = {"A3\Sounds_F\arsenal\weapons\LongRangeRifles\Mk18\Mk18_tail_houses",1,1,2000};
						frequency = 1;
						volume = "(1-interior/1.4)*houses";
					};
					class TailInterior
					{
						sound[] = {"A3\Sounds_F\arsenal\weapons\LongRangeRifles\Mk18\Mk18_tail_interior",1.58489,1,2000};
						frequency = 1;
						volume = "interior";
					};
					class TailMeadows
					{
						sound[] = {"A3\Sounds_F\arsenal\weapons\LongRangeRifles\Mk18\Mk18_tail_meadows",1,1,2000};
						frequency = 1;
						volume = "(1-interior/1.4)*(meadows/2 max sea/2)";
					};
					class TailTrees
					{
						sound[] = {"A3\Sounds_F\arsenal\weapons\LongRangeRifles\Mk18\Mk18_tail_trees",1,1,2000};
						frequency = 1;
						volume = "(1-interior/1.4)*trees";
					};
				};
			};
			class SilencedSound: BaseSoundModeType
			{
				class SoundTails
				{
					class TailForest
					{
						sound[] = {"A3\Sounds_F\arsenal\weapons\LongRangeRifles\Mk18\silencer_Mk18_tail_forest",1,1,600};
						frequency = 1;
						volume = "(1-interior/1.4)*forest";
					};
					class TailHouses
					{
						sound[] = {"A3\Sounds_F\arsenal\weapons\LongRangeRifles\Mk18\silencer_Mk18_tail_houses",1,1,600};
						frequency = 1;
						volume = "(1-interior/1.4)*houses";
					};
					class TailInterior
					{
						sound[] = {"A3\Sounds_F\arsenal\weapons\LongRangeRifles\Mk18\silencer_Mk18_tail_interior",1.99526,1,600};
						frequency = 1;
						volume = "interior";
					};
					class TailMeadows
					{
						sound[] = {"A3\Sounds_F\arsenal\weapons\LongRangeRifles\Mk18\silencer_Mk18_tail_meadows",1,1,600};
						frequency = 1;
						volume = "(1-interior/1.4)*(meadows/2 max sea/2)";
					};
					class TailTrees
					{
						sound[] = {"A3\Sounds_F\arsenal\weapons\LongRangeRifles\Mk18\silencer_Mk18_tail_trees",1,1,600};
						frequency = 1;
						volume = "(1-interior/1.4)*trees";
					};
				};
			};
		};
	};
	class GM6_base_F: Rifle_Long_Base_F
	{
		class Single: Mode_SemiAuto
		{
			class StandardSound: BaseSoundModeType
			{
				class SoundTails
				{
					class TailForest
					{
						sound[] = {"A3\Sounds_F\arsenal\weapons\LongRangeRifles\GM6_Lynx\GM6_tail_forest",1,1,2200};
						frequency = 1;
						volume = "(1-interior/1.4)*forest";
					};
					class TailHouses
					{
						sound[] = {"A3\Sounds_F\arsenal\weapons\LongRangeRifles\GM6_Lynx\GM6_tail_houses",1,1,2200};
						frequency = 1;
						volume = "(1-interior/1.4)*houses";
					};
					class TailInterior
					{
						sound[] = {"A3\Sounds_F\arsenal\weapons\LongRangeRifles\GM6_Lynx\GM6_tail_interior",1.99526,1,2200};
						frequency = 1;
						volume = "interior";
					};
					class TailMeadows
					{
						sound[] = {"A3\Sounds_F\arsenal\weapons\LongRangeRifles\GM6_Lynx\GM6_tail_meadows",1,1,2200};
						frequency = 1;
						volume = "(1-interior/1.4)*(meadows/2 max sea/2)";
					};
					class TailTrees
					{
						sound[] = {"A3\Sounds_F\arsenal\weapons\LongRangeRifles\GM6_Lynx\GM6_tail_trees",1,1,2200};
						frequency = 1;
						volume = "(1-interior/1.4)*trees";
					};
				};
			};
		};
	};
	class LRR_base_F: Rifle_Long_Base_F
	{
		class Single: Mode_SemiAuto
		{
			class StandardSound: BaseSoundModeType
			{
				class SoundTails
				{
					class TailForest
					{
						sound[] = {"A3\Sounds_F\arsenal\weapons\LongRangeRifles\M320\M320_tail_forest",1,1,2200};
						frequency = 1;
						volume = "(1-interior/1.4)*forest";
					};
					class TailHouses
					{
						sound[] = {"A3\Sounds_F\arsenal\weapons\LongRangeRifles\M320\M320_tail_houses",1,1,2200};
						frequency = 1;
						volume = "(1-interior/1.4)*houses";
					};
					class TailInterior
					{
						sound[] = {"A3\Sounds_F\arsenal\weapons\LongRangeRifles\M320\M320_tail_interior",1.99526,1,2200};
						frequency = 1;
						volume = "interior";
					};
					class TailMeadows
					{
						sound[] = {"A3\Sounds_F\arsenal\weapons\LongRangeRifles\M320\M320_tail_meadows",1,1,2200};
						frequency = 1;
						volume = "(1-interior/1.4)*(meadows/2 max sea/2)";
					};
					class TailTrees
					{
						sound[] = {"A3\Sounds_F\arsenal\weapons\LongRangeRifles\M320\M320_tail_trees",1,1,2200};
						frequency = 1;
						volume = "(1-interior/1.4)*trees";
					};
				};
			};
		};
	};
	class LMG_Mk200_F: Rifle_Long_Base_F
	{
		class manual: Mode_FullAuto
		{
			class StandardSound: BaseSoundModeType
			{
				class SoundTails
				{
					class TailTrees
					{
						sound[] = {"A3\Sounds_F\arsenal\weapons\Machineguns\Mk200\MK200_tail_trees",1,1,1200};
						frequency = 1;
						volume = "(1-interior/1.4)*trees";
					};
					class TailForest
					{
						sound[] = {"A3\Sounds_F\arsenal\weapons\Machineguns\Mk200\MK200_tail_forest",1,1,1200};
						frequency = 1;
						volume = "(1-interior/1.4)*forest";
					};
					class TailInterior
					{
						sound[] = {"A3\Sounds_F\arsenal\weapons\Machineguns\Mk200\MK200_tail_interior",1.99526,1,1200};
						frequency = 1;
						volume = "interior";
					};
					class TailMeadows
					{
						sound[] = {"A3\Sounds_F\arsenal\weapons\Machineguns\Mk200\MK200_tail_meadows",1,1,1200};
						frequency = 1;
						volume = "(1-interior/1.4)*(meadows/2 max sea/2)";
					};
					class TailHouses
					{
						sound[] = {"A3\Sounds_F\arsenal\weapons\Machineguns\Mk200\MK200_tail_houses",1,1,1200};
						frequency = 1;
						volume = "(1-interior/1.4)*houses";
					};
				};
			};
			class SilencedSound: BaseSoundModeType
			{
				class SoundTails
				{
					class TailTrees
					{
						sound[] = {"A3\Sounds_F\arsenal\weapons\Machineguns\Mk200\Silencer_Mk200_tail_trees",1,1,1800};
						frequency = 1;
						volume = "(1-interior/1.4)*trees";
					};
					class TailForest
					{
						sound[] = {"A3\Sounds_F\arsenal\weapons\Machineguns\Mk200\Silencer_Mk200_tail_forest",1,1,1800};
						frequency = 1;
						volume = "(1-interior/1.4)*forest";
					};
					class TailInterior
					{
						sound[] = {"A3\Sounds_F\arsenal\weapons\Machineguns\Mk200\Silencer_Mk200_tail_interior",1.99526,1,1200};
						frequency = 1;
						volume = "interior";
					};
					class TailMeadows
					{
						sound[] = {"A3\Sounds_F\arsenal\weapons\Machineguns\Mk200\Silencer_Mk200_tail_meadows",1,1,1800};
						frequency = 1;
						volume = "(1-interior/1.4)*(meadows/2 max sea/2)";
					};
					class TailHouses
					{
						sound[] = {"A3\Sounds_F\arsenal\weapons\Machineguns\Mk200\Silencer_Mk200_tail_houses",1,1,1800};
						frequency = 1;
						volume = "(1-interior/1.4)*houses";
					};
				};
			};
		};
	};
	class LMG_Zafir_F: Rifle_Long_Base_F
	{
		class Single: Mode_SemiAuto
		{
			class StandardSound: BaseSoundModeType
			{
				class SoundTails
				{
					class TailTrees
					{
						sound[] = {"A3\Sounds_F\arsenal\weapons\Machineguns\Zafir\Zafir_tail_trees",1,1,1200};
						frequency = 1;
						volume = "(1-interior/1.4)*trees";
					};
					class TailForest
					{
						sound[] = {"A3\Sounds_F\arsenal\weapons\Machineguns\Zafir\Zafir_tail_forest",1,1,1200};
						frequency = 1;
						volume = "(1-interior/1.4)*forest";
					};
					class TailMeadows
					{
						sound[] = {"A3\Sounds_F\arsenal\weapons\Machineguns\Zafir\Zafir_tail_meadows",1,1,1200};
						frequency = 1;
						volume = "(1-interior/1.4)*(meadows/2 max sea/2)";
					};
					class TailHouses
					{
						sound[] = {"A3\Sounds_F\arsenal\weapons\Machineguns\Zafir\Zafir_tail_houses",1,1,1200};
						frequency = 1;
						volume = "(1-interior/1.4)*houses";
					};
					class TailInterior
					{
						sound[] = {"A3\Sounds_F\arsenal\weapons\Machineguns\Zafir\Zafir_tail_interior",1.99526,1,1200};
						frequency = 1;
						volume = "interior";
					};
				};
			};
		};
		class FullAuto: Mode_FullAuto
		{
			class StandardSound: BaseSoundModeType
			{
				class SoundTails
				{
					class TailTrees
					{
						sound[] = {"A3\Sounds_F\arsenal\weapons\Machineguns\Zafir\Zafir_tail_trees",1,1,1200};
						frequency = 1;
						volume = "(1-interior/1.4)*trees";
					};
					class TailForest
					{
						sound[] = {"A3\Sounds_F\arsenal\weapons\Machineguns\Zafir\Zafir_tail_forest",1,1,1200};
						frequency = 1;
						volume = "(1-interior/1.4)*forest";
					};
					class TailMeadows
					{
						sound[] = {"A3\Sounds_F\arsenal\weapons\Machineguns\Zafir\Zafir_tail_meadows",1,1,1200};
						frequency = 1;
						volume = "(1-interior/1.4)*(meadows/2 max sea/2)";
					};
					class TailHouses
					{
						sound[] = {"A3\Sounds_F\arsenal\weapons\Machineguns\Zafir\Zafir_tail_houses",1,1,1200};
						frequency = 1;
						volume = "(1-interior/1.4)*houses";
					};
					class TailInterior
					{
						sound[] = {"A3\Sounds_F\arsenal\weapons\Machineguns\Zafir\Zafir_tail_interior",1.99526,1,1200};
						frequency = 1;
						volume = "interior";
					};
				};
			};
		};
	};

	class MMG_01_base_F: Rifle_Long_Base_F
	{
		class manual: Mode_FullAuto
		{
			class StandardSound: BaseSoundModeType
			{
				class SoundTails
				{
					class TailInterior
					{
						sound[] = {"A3\Sounds_F_Mark\arsenal\weapons\Machineguns\MMG_01_Navid\MMG_01_tail_interior",1.41254,1,1200};
						frequency = 1;
						volume = "interior";
					};
					class TailForest
					{
						sound[] = {"A3\Sounds_F_Mark\arsenal\weapons\Machineguns\MMG_01_Navid\MMG_01_tail_forest",1,1,1200};
						frequency = 1;
						volume = "(1-interior/1.4)*forest";
					};
					class TailHouses
					{
						sound[] = {"A3\Sounds_F_Mark\arsenal\weapons\Machineguns\MMG_01_Navid\MMG_01_tail_houses",1,1,1200};
						frequency = 1;
						volume = "(1-interior/1.4)*houses";
					};
					class TailMeadows
					{
						sound[] = {"A3\Sounds_F_Mark\arsenal\weapons\Machineguns\MMG_01_Navid\MMG_01_tail_meadows",1,1,1200};
						frequency = 1;
						volume = "(1-interior/1.4)*(meadows/2 max sea/2)";
					};
					class TailTrees
					{
						sound[] = {"A3\Sounds_F_Mark\arsenal\weapons\Machineguns\MMG_01_Navid\MMG_01_tail_trees",1,1,1200};
						frequency = 1;
						volume = "(1-interior/1.4)*trees";
					};
				};
			};
			class SilencedSound: BaseSoundModeType
			{
				class SoundTails
				{
					class TailInterior
					{
						sound[] = {"A3\Sounds_F_Mark\arsenal\weapons\Machineguns\MMG_01_Navid\silencer_MMG_01_tail_interior",1.41254,1,400};
						frequency = 1;
						volume = "interior";
					};
					class TailForest
					{
						sound[] = {"A3\Sounds_F_Mark\arsenal\weapons\Machineguns\MMG_01_Navid\silencer_MMG_01_tail_forest",1,1,400};
						frequency = 1;
						volume = "(1-interior/1.4)*forest";
					};
					class TailHouses
					{
						sound[] = {"A3\Sounds_F_Mark\arsenal\weapons\Machineguns\MMG_01_Navid\silencer_MMG_01_tail_houses",1,1,400};
						frequency = 1;
						volume = "(1-interior/1.4)*houses";
					};
					class TailMeadows
					{
						sound[] = {"A3\Sounds_F_Mark\arsenal\weapons\Machineguns\MMG_01_Navid\silencer_MMG_01_tail_meadows",1,1,400};
						frequency = 1;
						volume = "(1-interior/1.4)*(meadows/2 max sea/2)";
					};
					class TailTrees
					{
						sound[] = {"A3\Sounds_F_Mark\arsenal\weapons\Machineguns\MMG_01_Navid\silencer_MMG_01_tail_trees",1,1,400};
						frequency = 1;
						volume = "(1-interior/1.4)*trees";
					};
				};
			};
		};
		class Burst: Mode_Burst
		{
			class StandardSound: BaseSoundModeType
			{
				class SoundTails
				{
					class TailInterior
					{
						sound[] = {"A3\Sounds_F_Mark\arsenal\weapons\Machineguns\MMG_01_Navid\MMG_01_tail_interior",1.41254,1,1200};
						frequency = 1;
						volume = "interior";
					};
					class TailForest
					{
						sound[] = {"A3\Sounds_F_Mark\arsenal\weapons\Machineguns\MMG_01_Navid\MMG_01_tail_forest",1,1,1800};
						frequency = 1;
						volume = "(1-interior/1.4)*forest";
					};
					class TailHouses
					{
						sound[] = {"A3\Sounds_F_Mark\arsenal\weapons\Machineguns\MMG_01_Navid\MMG_01_tail_houses",1,1,1800};
						frequency = 1;
						volume = "(1-interior/1.4)*houses";
					};
					class TailMeadows
					{
						sound[] = {"A3\Sounds_F_Mark\arsenal\weapons\Machineguns\MMG_01_Navid\MMG_01_tail_meadows",1,1,1800};
						frequency = 1;
						volume = "(1-interior/1.4)*(meadows/2 max sea/2)";
					};
					class TailTrees
					{
						sound[] = {"A3\Sounds_F_Mark\arsenal\weapons\Machineguns\MMG_01_Navid\MMG_01_tail_trees",1,1,1800};
						frequency = 1;
						volume = "(1-interior/1.4)*trees";
					};
				};
			};
			class SilencedSound: BaseSoundModeType
			{
				class SoundTails
				{
					class TailInterior
					{
						sound[] = {"A3\Sounds_F_Mark\arsenal\weapons\Machineguns\MMG_01_Navid\silencer_MMG_01_tail_interior",1.41254,1,1200};
						frequency = 1;
						volume = "interior";
					};
					class TailForest
					{
						sound[] = {"A3\Sounds_F_Mark\arsenal\weapons\Machineguns\MMG_01_Navid\silencer_MMG_01_tail_forest",1,1,1800};
						frequency = 1;
						volume = "(1-interior/1.4)*forest";
					};
					class TailHouses
					{
						sound[] = {"A3\Sounds_F_Mark\arsenal\weapons\Machineguns\MMG_01_Navid\silencer_MMG_01_tail_houses",1,1,1800};
						frequency = 1;
						volume = "(1-interior/1.4)*houses";
					};
					class TailMeadows
					{
						sound[] = {"A3\Sounds_F_Mark\arsenal\weapons\Machineguns\MMG_01_Navid\silencer_MMG_01_tail_meadows",1,1,1800};
						frequency = 1;
						volume = "(1-interior/1.4)*(meadows/2 max sea/2)";
					};
					class TailTrees
					{
						sound[] = {"A3\Sounds_F_Mark\arsenal\weapons\Machineguns\MMG_01_Navid\silencer_MMG_01_tail_trees",1,1,1800};
						frequency = 1;
						volume = "(1-interior/1.4)*trees";
					};
				};
			};
		};
	};
	class MMG_02_base_F: Rifle_Long_Base_F
	{
		class manual: Mode_FullAuto
		{
			class StandardSound: BaseSoundModeType
			{
				class SoundTails
				{
					class TailInterior
					{
						sound[] = {"A3\Sounds_F_Mark\arsenal\weapons\Machineguns\MMG_02_SPGM\MMG_02_tail_interior",1,1,1200};
						frequency = 1;
						volume = "interior";
					};
					class TailForest
					{
						sound[] = {"A3\Sounds_F_Mark\arsenal\weapons\Machineguns\MMG_02_SPGM\MMG_02_tail_forest",1,1,1200};
						frequency = 1;
						volume = "(1-interior/1.4)*forest";
					};
					class TailHouses
					{
						sound[] = {"A3\Sounds_F_Mark\arsenal\weapons\Machineguns\MMG_02_SPGM\MMG_02_tail_houses",1,1,1200};
						frequency = 1;
						volume = "(1-interior/1.4)*houses";
					};
					class TailMeadows
					{
						sound[] = {"A3\Sounds_F_Mark\arsenal\weapons\Machineguns\MMG_02_SPGM\MMG_02_tail_meadows",1,1,1200};
						frequency = 1;
						volume = "(1-interior/1.4)*(meadows/2 max sea/2)";
					};
					class TailTrees
					{
						sound[] = {"A3\Sounds_F_Mark\arsenal\weapons\Machineguns\MMG_02_SPGM\MMG_02_tail_trees",1,1,1200};
						frequency = 1;
						volume = "(1-interior/1.4)*trees";
					};
				};
			};
			class SilencedSound: BaseSoundModeType
			{
				class SoundTails
				{
					class TailInterior
					{
						sound[] = {"A3\Sounds_F_Mark\arsenal\weapons\Machineguns\MMG_02_SPGM\silencer_MMG_02_tail_interior",1,1,300};
						frequency = 1;
						volume = "interior";
					};
					class TailForest
					{
						sound[] = {"A3\Sounds_F_Mark\arsenal\weapons\Machineguns\MMG_02_SPGM\silencer_MMG_02_tail_forest",1,1,300};
						frequency = 1;
						volume = "(1-interior/1.4)*forest";
					};
					class TailHouses
					{
						sound[] = {"A3\Sounds_F_Mark\arsenal\weapons\Machineguns\MMG_02_SPGM\silencer_MMG_02_tail_houses",1,1,300};
						frequency = 1;
						volume = "(1-interior/1.4)*houses";
					};
					class TailMeadows
					{
						sound[] = {"A3\Sounds_F_Mark\arsenal\weapons\Machineguns\MMG_02_SPGM\silencer_MMG_02_tail_meadows",1,1,300};
						frequency = 1;
						volume = "(1-interior/1.4)*(meadows/2 max sea/2)";
					};
					class TailTrees
					{
						sound[] = {"A3\Sounds_F_Mark\arsenal\weapons\Machineguns\MMG_02_SPGM\silencer_MMG_02_tail_trees",1,1,300};
						frequency = 1;
						volume = "(1-interior/1.4)*trees";
					};
				};
			};
		};
	};

	class arifle_Katiba_Base_F: Rifle_Base_F
	{
		class Single: Mode_SemiAuto
		{
			class StandardSound: BaseSoundModeType
			{
				class SoundTails
				{
					class TailInterior
					{
						sound[] = {"A3\Sounds_F\arsenal\weapons\Rifles\Katiba\Katiba_tail_interior",2.23872,1,1800};
						frequency = 1;
						volume = "interior";
					};
					class TailTrees
					{
						sound[] = {"A3\Sounds_F\arsenal\weapons\Rifles\Katiba\Katiba_tail_trees",1,1,1800};
						frequency = 1;
						volume = "(1-interior/1.4)*trees";
					};
					class TailForest
					{
						sound[] = {"A3\Sounds_F\arsenal\weapons\Rifles\Katiba\Katiba_tail_forest",1,1,1800};
						frequency = 1;
						volume = "(1-interior/1.4)*forest";
					};
					class TailMeadows
					{
						sound[] = {"A3\Sounds_F\arsenal\weapons\Rifles\Katiba\Katiba_tail_meadows",1,1,1800};
						frequency = 1;
						volume = "(1-interior/1.4)*(meadows/2 max sea/2)";
					};
					class TailHouses
					{
						sound[] = {"A3\Sounds_F\arsenal\weapons\Rifles\Katiba\Katiba_tail_houses",1,1,1800};
						frequency = 1;
						volume = "(1-interior/1.4)*houses";
					};
				};
			};
			class SilencedSound: BaseSoundModeType
			{
				class SoundTails
				{
					class TailInterior
					{
						sound[] = {"A3\Sounds_F\arsenal\weapons\Rifles\Katiba\Silencer_Katiba_Tail_interior",1,1,400};
						frequency = 1;
						volume = "interior";
					};
					class TailTrees
					{
						sound[] = {"A3\Sounds_F\arsenal\weapons\Rifles\Katiba\Silencer_Katiba_Tail_trees",1,1,400};
						frequency = 1;
						volume = "(1-interior/1.4)*trees";
					};
					class TailForest
					{
						sound[] = {"A3\Sounds_F\arsenal\weapons\Rifles\Katiba\Silencer_Katiba_Tail_forest",1,1,400};
						frequency = 1;
						volume = "(1-interior/1.4)*forest";
					};
					class TailMeadows
					{
						sound[] = {"A3\Sounds_F\arsenal\weapons\Rifles\Katiba\Silencer_Katiba_Tail_meadows",1,1,400};
						frequency = 1;
						volume = "(1-interior/1.4)*(meadows/2 max sea/2)";
					};
					class TailHouses
					{
						sound[] = {"A3\Sounds_F\arsenal\weapons\Rifles\Katiba\Silencer_Katiba_Tail_houses",1,1,400};
						frequency = 1;
						volume = "(1-interior/1.4)*houses";
					};
				};
			};
		};
		class FullAuto: Mode_FullAuto
		{
			class StandardSound: BaseSoundModeType
			{
				class SoundTails
				{
					class TailInterior
					{
						sound[] = {"A3\Sounds_F\arsenal\weapons\Rifles\Katiba\Katiba_tail_interior",1.58489,1,1800};
						frequency = 1;
						volume = "interior";
					};
					class TailTrees
					{
						sound[] = {"A3\Sounds_F\arsenal\weapons\Rifles\Katiba\Katiba_tail_trees",1,1,1800};
						frequency = 1;
						volume = "(1-interior/1.4)*trees";
					};
					class TailForest
					{
						sound[] = {"A3\Sounds_F\arsenal\weapons\Rifles\Katiba\Katiba_tail_forest",1,1,1800};
						frequency = 1;
						volume = "(1-interior/1.4)*forest";
					};
					class TailMeadows
					{
						sound[] = {"A3\Sounds_F\arsenal\weapons\Rifles\Katiba\Katiba_tail_meadows",1,1,1800};
						frequency = 1;
						volume = "(1-interior/1.4)*(meadows/2 max sea/2)";
					};
					class TailHouses
					{
						sound[] = {"A3\Sounds_F\arsenal\weapons\Rifles\Katiba\Katiba_tail_houses",1,1,1800};
						frequency = 1;
						volume = "(1-interior/1.4)*houses";
					};
				};
			};
			class SilencedSound: BaseSoundModeType
			{
				class SoundTails
				{
					class TailInterior
					{
						sound[] = {"A3\Sounds_F\arsenal\weapons\Rifles\Katiba\Silencer_Katiba_Tail_interior",1,1,400};
						frequency = 1;
						volume = "interior";
					};
					class TailTrees
					{
						sound[] = {"A3\Sounds_F\arsenal\weapons\Rifles\Katiba\Silencer_Katiba_Tail_trees",1,1,400};
						frequency = 1;
						volume = "(1-interior/1.4)*trees";
					};
					class TailForest
					{
						sound[] = {"A3\Sounds_F\arsenal\weapons\Rifles\Katiba\Silencer_Katiba_Tail_forest",1,1,400};
						frequency = 1;
						volume = "(1-interior/1.4)*forest";
					};
					class TailMeadows
					{
						sound[] = {"A3\Sounds_F\arsenal\weapons\Rifles\Katiba\Silencer_Katiba_Tail_meadows",1,1,400};
						frequency = 1;
						volume = "(1-interior/1.4)*(meadows/2 max sea/2)";
					};
					class TailHouses
					{
						sound[] = {"A3\Sounds_F\arsenal\weapons\Rifles\Katiba\Silencer_Katiba_Tail_houses",1,1,400};
						frequency = 1;
						volume = "(1-interior/1.4)*houses";
					};
				};
			};
		};
	};
	class mk20_base_F: Rifle_Base_F
	{
		class Single: Mode_SemiAuto
		{
			class StandardSound: BaseSoundModeType
			{
				class SoundTails
				{
					class TailTrees
					{
						sound[] = {"A3\Sounds_F\arsenal\weapons\Rifles\Mk20\Mk20_tail_trees",1,1,1400};
						frequency = 1;
						volume = "(1-interior/1.4)*trees";
					};
					class TailForest
					{
						sound[] = {"A3\Sounds_F\arsenal\weapons\Rifles\Mk20\Mk20_tail_forest",1,1,1400};
						frequency = 1;
						volume = "(1-interior/1.4)*forest";
					};
					class TailInterior
					{
						sound[] = {"A3\Sounds_F\arsenal\weapons\Rifles\Mk20\Mk20_tail_interior",1.58489,1,1400};
						frequency = 1;
						volume = "interior";
					};
					class TailMeadows
					{
						sound[] = {"A3\Sounds_F\arsenal\weapons\Rifles\Mk20\Mk20_tail_meadows",1,1,1400};
						frequency = 1;
						volume = "(1-interior/1.4)*(meadows/2 max sea/2)";
					};
					class TailHouses
					{
						sound[] = {"A3\Sounds_F\arsenal\weapons\Rifles\Mk20\Mk20_tail_houses",1,1,1400};
						frequency = 1;
						volume = "(1-interior/1.4)*houses";
					};
				};
			};
			class SilencedSound: BaseSoundModeType
			{
				class SoundTails
				{
					class TailTrees
					{
						sound[] = {"A3\Sounds_F\arsenal\weapons\Rifles\Mk20\Silencer_Mk20_Tail_trees",1,1,400};
						frequency = 1;
						volume = "(1-interior/1.4)*trees";
					};
					class TailForest
					{
						sound[] = {"A3\Sounds_F\arsenal\weapons\Rifles\Mk20\Silencer_Mk20_Tail_forest",1,1,400};
						frequency = 1;
						volume = "(1-interior/1.4)*forest";
					};
					class TailInterior
					{
						sound[] = {"A3\Sounds_F\arsenal\weapons\Rifles\Mk20\Silencer_Mk20_Tail_interior",1,1,400};
						frequency = 1;
						volume = "interior";
					};
					class TailMeadows
					{
						sound[] = {"A3\Sounds_F\arsenal\weapons\Rifles\Mk20\Silencer_Mk20_Tail_meadows",1,1,400};
						frequency = 1;
						volume = "(1-interior/1.4)*(meadows/2 max sea/2)";
					};
					class TailHouses
					{
						sound[] = {"A3\Sounds_F\arsenal\weapons\Rifles\Mk20\Silencer_Mk20_Tail_houses",1,1,400};
						frequency = 1;
						volume = "(1-interior/1.4)*houses";
					};
				};
			};
		};
		class FullAuto: Mode_FullAuto
		{
			class StandardSound: BaseSoundModeType
			{
				class SoundTails
				{
					class TailTrees
					{
						sound[] = {"A3\Sounds_F\arsenal\weapons\Rifles\Mk20\Mk20_tail_trees",1,1,1400};
						frequency = 1;
						volume = "(1-interior/1.4)*trees";
					};
					class TailForest
					{
						sound[] = {"A3\Sounds_F\arsenal\weapons\Rifles\Mk20\Mk20_tail_forest",1,1,1400};
						frequency = 1;
						volume = "(1-interior/1.4)*forest";
					};
					class TailInterior
					{
						sound[] = {"A3\Sounds_F\arsenal\weapons\Rifles\Mk20\Mk20_tail_interior",1.58489,1,1400};
						frequency = 1;
						volume = "interior";
					};
					class TailMeadows
					{
						sound[] = {"A3\Sounds_F\arsenal\weapons\Rifles\Mk20\Mk20_tail_meadows",1,1,1400};
						frequency = 1;
						volume = "(1-interior/1.4)*(meadows/2 max sea/2)";
					};
					class TailHouses
					{
						sound[] = {"A3\Sounds_F\arsenal\weapons\Rifles\Mk20\Mk20_tail_houses",1,1,1400};
						frequency = 1;
						volume = "(1-interior/1.4)*houses";
					};
				};
			};
			class SilencedSound: BaseSoundModeType
			{
				class SoundTails
				{
					class TailTrees
					{
						sound[] = {"A3\Sounds_F\arsenal\weapons\Rifles\Mk20\Silencer_Mk20_Tail_trees",1,1,400};
						frequency = 1;
						volume = "(1-interior/1.4)*trees";
					};
					class TailForest
					{
						sound[] = {"A3\Sounds_F\arsenal\weapons\Rifles\Mk20\Silencer_Mk20_Tail_forest",1,1,400};
						frequency = 1;
						volume = "(1-interior/1.4)*forest";
					};
					class TailInterior
					{
						sound[] = {"A3\Sounds_F\arsenal\weapons\Rifles\Mk20\Silencer_Mk20_Tail_interior",1,1,400};
						frequency = 1;
						volume = "interior";
					};
					class TailMeadows
					{
						sound[] = {"A3\Sounds_F\arsenal\weapons\Rifles\Mk20\Silencer_Mk20_Tail_meadows",1,1,400};
						frequency = 1;
						volume = "(1-interior/1.4)*(meadows/2 max sea/2)";
					};
					class TailHouses
					{
						sound[] = {"A3\Sounds_F\arsenal\weapons\Rifles\Mk20\Silencer_Mk20_Tail_houses",1,1,400};
						frequency = 1;
						volume = "(1-interior/1.4)*houses";
					};
				};
			};
		};
	};
	class arifle_MX_Base_F: Rifle_Base_F
	{
		class Single: Mode_SemiAuto
		{
			class StandardSound: BaseSoundModeType
			{
				class SoundTails
				{
					class TailInterior
					{
						sound[] = {"A3\Sounds_F\arsenal\weapons\Rifles\MX\mx_tail_interior",2.23872,1,1800};
						frequency = 1;
						volume = "interior";
					};
					class TailTrees
					{
						sound[] = {"A3\Sounds_F\arsenal\weapons\Rifles\MX\mx_tail_trees",1,1,1800};
						frequency = 1;
						volume = "(1-interior/1.4)*trees";
					};
					class TailForest
					{
						sound[] = {"A3\Sounds_F\arsenal\weapons\Rifles\MX\mx_tail_forest",1,1,1800};
						frequency = 1;
						volume = "(1-interior/1.4)*forest";
					};
					class TailMeadows
					{
						sound[] = {"A3\Sounds_F\arsenal\weapons\Rifles\MX\mx_tail_meadows",1,1,1800};
						frequency = 1;
						volume = "(1-interior/1.4)*(meadows/2 max sea/2)";
					};
					class TailHouses
					{
						sound[] = {"A3\Sounds_F\arsenal\weapons\Rifles\MX\mx_tail_houses",1,1,1800};
						frequency = 1;
						volume = "(1-interior/1.4)*houses";
					};
				};
			};
			class SilencedSound: BaseSoundModeType
			{
				class SoundTails
				{
					class TailInterior
					{
						sound[] = {"A3\Sounds_F\arsenal\weapons\Rifles\MX\Silencer_Mx_tail_interior",1,1,400};
						frequency = 1;
						volume = "interior";
					};
					class TailTrees
					{
						sound[] = {"A3\Sounds_F\arsenal\weapons\Rifles\MX\Silencer_mx_tail_trees",1,1,400};
						frequency = 1;
						volume = "(1-interior/1.4)*trees";
					};
					class TailForest
					{
						sound[] = {"A3\Sounds_F\arsenal\weapons\Rifles\MX\Silencer_mx_tail_forest",1,1,400};
						frequency = 1;
						volume = "(1-interior/1.4)*forest";
					};
					class TailMeadows
					{
						sound[] = {"A3\Sounds_F\arsenal\weapons\Rifles\MX\Silencer_mx_tail_meadows",1,1,400};
						frequency = 1;
						volume = "(1-interior/1.4)*(meadows/2 max sea/2)";
					};
					class TailHouses
					{
						sound[] = {"A3\Sounds_F\arsenal\weapons\Rifles\MX\Silencer_mx_tail_houses",1,1,400};
						frequency = 1;
						volume = "(1-interior/1.4)*houses";
					};
				};
			};
		};
		class FullAuto: Mode_FullAuto
		{
			class StandardSound: BaseSoundModeType
			{
				class SoundTails
				{
					class TailInterior
					{
						sound[] = {"A3\Sounds_F\arsenal\weapons\Rifles\MX\mx_tail_interior",1.58489,1,1800};
						frequency = 1;
						volume = "interior";
					};
					class TailTrees
					{
						sound[] = {"A3\Sounds_F\arsenal\weapons\Rifles\MX\mx_tail_trees",1,1,1800};
						frequency = 1;
						volume = "(1-interior/1.4)*trees";
					};
					class TailForest
					{
						sound[] = {"A3\Sounds_F\arsenal\weapons\Rifles\MX\mx_tail_forest",1,1,1800};
						frequency = 1;
						volume = "(1-interior/1.4)*forest";
					};
					class TailMeadows
					{
						sound[] = {"A3\Sounds_F\arsenal\weapons\Rifles\MX\mx_tail_meadows",1,1,1800};
						frequency = 1;
						volume = "(1-interior/1.4)*(meadows/2 max sea/2)";
					};
					class TailHouses
					{
						sound[] = {"A3\Sounds_F\arsenal\weapons\Rifles\MX\mx_tail_houses",1,1,1800};
						frequency = 1;
						volume = "(1-interior/1.4)*houses";
					};
				};
			};
			class SilencedSound: BaseSoundModeType
			{
				class SoundTails
				{
					class TailInterior
					{
						sound[] = {"A3\Sounds_F\arsenal\weapons\Rifles\MX\Silencer_Mx_tail_interior",1,1,400};
						frequency = 1;
						volume = "interior";
					};
					class TailTrees
					{
						sound[] = {"A3\Sounds_F\arsenal\weapons\Rifles\MX\Silencer_mx_tail_trees",1,1,400};
						frequency = 1;
						volume = "(1-interior/1.4)*trees";
					};
					class TailForest
					{
						sound[] = {"A3\Sounds_F\arsenal\weapons\Rifles\MX\Silencer_mx_tail_forest",1,1,400};
						frequency = 1;
						volume = "(1-interior/1.4)*forest";
					};
					class TailMeadows
					{
						sound[] = {"A3\Sounds_F\arsenal\weapons\Rifles\MX\Silencer_mx_tail_meadows",1,1,400};
						frequency = 1;
						volume = "(1-interior/1.4)*(meadows/2 max sea/2)";
					};
					class TailHouses
					{
						sound[] = {"A3\Sounds_F\arsenal\weapons\Rifles\MX\Silencer_mx_tail_houses",1,1,400};
						frequency = 1;
						volume = "(1-interior/1.4)*houses";
					};
				};
			};
		};
	};
	class arifle_MX_SW_F: arifle_MX_Base_F
	{
		class Single: Mode_SemiAuto
		{
			class StandardSound: BaseSoundModeType
			{
				class SoundTails
				{
					class TailInterior
					{
						sound[] = {"A3\Sounds_F\arsenal\weapons\Rifles\MX\mx_tail_interior",2.23872,1,1800};
						frequency = 1;
						volume = "interior";
					};
					class TailTrees
					{
						sound[] = {"A3\Sounds_F\arsenal\weapons\Rifles\MX\mx_tail_trees",1,1,1800};
						frequency = 1;
						volume = "(1-interior/1.4)*trees";
					};
					class TailForest
					{
						sound[] = {"A3\Sounds_F\arsenal\weapons\Rifles\MX\mx_tail_forest",1,1,1800};
						frequency = 1;
						volume = "(1-interior/1.4)*forest";
					};
					class TailMeadows
					{
						sound[] = {"A3\Sounds_F\arsenal\weapons\Rifles\MX\mx_tail_meadows",1,1,1800};
						frequency = 1;
						volume = "(1-interior/1.4)*(meadows/2 max sea/2)";
					};
					class TailHouses
					{
						sound[] = {"A3\Sounds_F\arsenal\weapons\Rifles\MX\mx_tail_houses",1,1,1800};
						frequency = 1;
						volume = "(1-interior/1.4)*houses";
					};
				};
			};
			class SilencedSound: BaseSoundModeType
			{
				class SoundTails
				{
					class TailInterior
					{
						sound[] = {"A3\Sounds_F\arsenal\weapons\Rifles\MX\Silencer_Mx_tail_interior",1,1,400};
						frequency = 1;
						volume = "interior";
					};
					class TailTrees
					{
						sound[] = {"A3\Sounds_F\arsenal\weapons\Rifles\MX\Silencer_mx_tail_trees",1,1,400};
						frequency = 1;
						volume = "(1-interior/1.4)*trees";
					};
					class TailForest
					{
						sound[] = {"A3\Sounds_F\arsenal\weapons\Rifles\MX\Silencer_mx_tail_forest",1,1,400};
						frequency = 1;
						volume = "(1-interior/1.4)*forest";
					};
					class TailMeadows
					{
						sound[] = {"A3\Sounds_F\arsenal\weapons\Rifles\MX\Silencer_mx_tail_meadows",1,1,400};
						frequency = 1;
						volume = "(1-interior/1.4)*(meadows/2 max sea/2)";
					};
					class TailHouses
					{
						sound[] = {"A3\Sounds_F\arsenal\weapons\Rifles\MX\Silencer_mx_tail_houses",1,1,400};
						frequency = 1;
						volume = "(1-interior/1.4)*houses";
					};
				};
			};
		};
		class manual: FullAuto
		{
			class StandardSound: BaseSoundModeType
			{
				class SoundTails
				{
					class TailInterior
					{
						sound[] = {"A3\Sounds_F\arsenal\weapons\Rifles\MX\mx_tail_interior",1.58489,1,1800};
						frequency = 1;
						volume = "interior";
					};
					class TailTrees
					{
						sound[] = {"A3\Sounds_F\arsenal\weapons\Rifles\MX\mx_tail_trees",1,1,1800};
						frequency = 1;
						volume = "(1-interior/1.4)*trees";
					};
					class TailForest
					{
						sound[] = {"A3\Sounds_F\arsenal\weapons\Rifles\MX\mx_tail_forest",1,1,1800};
						frequency = 1;
						volume = "(1-interior/1.4)*forest";
					};
					class TailMeadows
					{
						sound[] = {"A3\Sounds_F\arsenal\weapons\Rifles\MX\mx_tail_meadows",1,1,1800};
						frequency = 1;
						volume = "(1-interior/1.4)*(meadows/2 max sea/2)";
					};
					class TailHouses
					{
						sound[] = {"A3\Sounds_F\arsenal\weapons\Rifles\MX\mx_tail_houses",1,1,1800};
						frequency = 1;
						volume = "(1-interior/1.4)*houses";
					};
				};
			};
			class SilencedSound: BaseSoundModeType
			{
				class SoundTails
				{
					class TailInterior
					{
						sound[] = {"A3\Sounds_F\arsenal\weapons\Rifles\MX\Silencer_Mx_tail_interior",1,1,400};
						frequency = 1;
						volume = "interior";
					};
					class TailTrees
					{
						sound[] = {"A3\Sounds_F\arsenal\weapons\Rifles\MX\Silencer_mx_tail_trees",1,1,400};
						frequency = 1;
						volume = "(1-interior/1.4)*trees";
					};
					class TailForest
					{
						sound[] = {"A3\Sounds_F\arsenal\weapons\Rifles\MX\Silencer_mx_tail_forest",1,1,400};
						frequency = 1;
						volume = "(1-interior/1.4)*forest";
					};
					class TailMeadows
					{
						sound[] = {"A3\Sounds_F\arsenal\weapons\Rifles\MX\Silencer_mx_tail_meadows",1,1,400};
						frequency = 1;
						volume = "(1-interior/1.4)*(meadows/2 max sea/2)";
					};
					class TailHouses
					{
						sound[] = {"A3\Sounds_F\arsenal\weapons\Rifles\MX\Silencer_mx_tail_houses",1,1,400};
						frequency = 1;
						volume = "(1-interior/1.4)*houses";
					};
				};
			};
		};
	};
	class SDAR_base_F: Rifle_Base_F
	{
		class Single: Mode_SemiAuto
		{
			class StandardSound: BaseSoundModeType
			{
				class SoundTails
				{
					class TailTrees
					{
						sound[] = {"A3\Sounds_F\arsenal\weapons\Rifles\SDAR\SDAR_tail_trees",1,1,1400};
						frequency = 1;
						volume = "(1-interior/1.4)*trees";
					};
					class TailForest
					{
						sound[] = {"A3\Sounds_F\arsenal\weapons\Rifles\SDAR\SDAR_tail_forest",1,1,1400};
						frequency = 1;
						volume = "(1-interior/1.4)*forest";
					};
					class TailInterior
					{
						sound[] = {"A3\Sounds_F\arsenal\weapons\Rifles\SDAR\SDAR_tail_interior",1.58489,1,1400};
						frequency = 1;
						volume = "interior";
					};
					class TailMeadows
					{
						sound[] = {"A3\Sounds_F\arsenal\weapons\Rifles\SDAR\SDAR_tail_meadows",1,1,1400};
						frequency = 1;
						volume = "(1-interior/1.4)*(meadows/2 max sea/2)";
					};
					class TailHouses
					{
						sound[] = {"A3\Sounds_F\arsenal\weapons\Rifles\SDAR\SDAR_tail_houses",1,1,1400};
						frequency = 1;
						volume = "(1-interior/1.4)*houses";
					};
				};
			};
		};
		class Burst: Mode_Burst
		{
			class StandardSound: BaseSoundModeType
			{
				class SoundTails
				{
					class TailTrees
					{
						sound[] = {"A3\Sounds_F\arsenal\weapons\Rifles\SDAR\SDAR_tail_trees",1,1,1400};
						frequency = 1;
						volume = "(1-interior/1.4)*trees";
					};
					class TailForest
					{
						sound[] = {"A3\Sounds_F\arsenal\weapons\Rifles\SDAR\SDAR_tail_forest",1,1,1400};
						frequency = 1;
						volume = "(1-interior/1.4)*forest";
					};
					class TailInterior
					{
						sound[] = {"A3\Sounds_F\arsenal\weapons\Rifles\SDAR\SDAR_tail_interior",1.58489,1,1400};
						frequency = 1;
						volume = "interior";
					};
					class TailMeadows
					{
						sound[] = {"A3\Sounds_F\arsenal\weapons\Rifles\SDAR\SDAR_tail_meadows",1,1,1400};
						frequency = 1;
						volume = "(1-interior/1.4)*(meadows/2 max sea/2)";
					};
					class TailHouses
					{
						sound[] = {"A3\Sounds_F\arsenal\weapons\Rifles\SDAR\SDAR_tail_houses",1,1,1400};
						frequency = 1;
						volume = "(1-interior/1.4)*houses";
					};
				};
			};
		};
		class FullAuto: Mode_FullAuto
		{
			class StandardSound: BaseSoundModeType
			{
				class SoundTails
				{
					class TailTrees
					{
						sound[] = {"A3\Sounds_F\arsenal\weapons\Rifles\SDAR\SDAR_tail_trees",1,1,1400};
						frequency = 1;
						volume = "(1-interior/1.4)*trees";
					};
					class TailForest
					{
						sound[] = {"A3\Sounds_F\arsenal\weapons\Rifles\SDAR\SDAR_tail_forest",1,1,1400};
						frequency = 1;
						volume = "(1-interior/1.4)*forest";
					};
					class TailInterior
					{
						sound[] = {"A3\Sounds_F\arsenal\weapons\Rifles\SDAR\SDAR_tail_interior",1.58489,1,1400};
						frequency = 1;
						volume = "interior";
					};
					class TailMeadows
					{
						sound[] = {"A3\Sounds_F\arsenal\weapons\Rifles\SDAR\SDAR_tail_meadows",1,1,1400};
						frequency = 1;
						volume = "(1-interior/1.4)*(meadows/2 max sea/2)";
					};
					class TailHouses
					{
						sound[] = {"A3\Sounds_F\arsenal\weapons\Rifles\SDAR\SDAR_tail_houses",1,1,1400};
						frequency = 1;
						volume = "(1-interior/1.4)*houses";
					};
				};
			};
		};
	};
	class Tavor_base_F: Rifle_Base_F
	{
		class Single: Mode_SemiAuto
		{
			class StandardSound: BaseSoundModeType
			{
				class SoundTails
				{
					class TailTrees
					{
						sound[] = {"A3\Sounds_F\arsenal\weapons\Rifles\TRG20\TRG20_tail_trees",1,1,1400};
						frequency = 1;
						volume = "(1-interior/1.4)*trees";
					};
					class TailForest
					{
						sound[] = {"A3\Sounds_F\arsenal\weapons\Rifles\TRG20\TRG20_tail_forest",1,1,1400};
						frequency = 1;
						volume = "(1-interior/1.4)*forest";
					};
					class TailInterior
					{
						sound[] = {"A3\Sounds_F\arsenal\weapons\Rifles\TRG20\TRG20_tail_interior",1.58489,1,1400};
						frequency = 1;
						volume = "interior";
					};
					class TailMeadows
					{
						sound[] = {"A3\Sounds_F\arsenal\weapons\Rifles\TRG20\TRG20_tail_meadows",1,1,1400};
						frequency = 1;
						volume = "(1-interior/1.4)*(meadows/2 max sea/2)";
					};
					class TailHouses
					{
						sound[] = {"A3\Sounds_F\arsenal\weapons\Rifles\TRG20\TRG20_tail_houses",1,1,1400};
						frequency = 1;
						volume = "(1-interior/1.4)*houses";
					};
				};
			};
			class SilencedSound: BaseSoundModeType
			{
				class SoundTails
				{
					class TailTrees
					{
						sound[] = {"A3\Sounds_F\arsenal\weapons\Rifles\TRG20\Silencer_TRG20_Tail_trees",1,1,400};
						frequency = 1;
						volume = "(1-interior/1.4)*trees";
					};
					class TailForest
					{
						sound[] = {"A3\Sounds_F\arsenal\weapons\Rifles\TRG20\Silencer_TRG20_Tail_forest",1,1,400};
						frequency = 1;
						volume = "(1-interior/1.4)*forest";
					};
					class TailInterior
					{
						sound[] = {"A3\Sounds_F\arsenal\weapons\Rifles\TRG20\Silencer_TRG20_tail_interior",1,1,400};
						frequency = 1;
						volume = "interior";
					};
					class TailMeadows
					{
						sound[] = {"A3\Sounds_F\arsenal\weapons\Rifles\TRG20\Silencer_TRG20_Tail_meadows",1,1,400};
						frequency = 1;
						volume = "(1-interior/1.4)*(meadows/2 max sea/2)";
					};
					class TailHouses
					{
						sound[] = {"A3\Sounds_F\arsenal\weapons\Rifles\TRG20\Silencer_TRG20_Tail_houses",1,1,400};
						frequency = 1;
						volume = "(1-interior/1.4)*houses";
					};
				};
			};
		};
		class FullAuto: Mode_FullAuto
		{
			class StandardSound: BaseSoundModeType
			{
				class SoundTails
				{
					class TailTrees
					{
						sound[] = {"A3\Sounds_F\arsenal\weapons\Rifles\TRG20\TRG20_tail_trees",1,1,1400};
						frequency = 1;
						volume = "(1-interior/1.4)*trees";
					};
					class TailForest
					{
						sound[] = {"A3\Sounds_F\arsenal\weapons\Rifles\TRG20\TRG20_tail_forest",1,1,1400};
						frequency = 1;
						volume = "(1-interior/1.4)*forest";
					};
					class TailInterior
					{
						sound[] = {"A3\Sounds_F\arsenal\weapons\Rifles\TRG20\TRG20_tail_interior",1.58489,1,1400};
						frequency = 1;
						volume = "interior";
					};
					class TailMeadows
					{
						sound[] = {"A3\Sounds_F\arsenal\weapons\Rifles\TRG20\TRG20_tail_meadows",1,1,1400};
						frequency = 1;
						volume = "(1-interior/1.4)*(meadows/2 max sea/2)";
					};
					class TailHouses
					{
						sound[] = {"A3\Sounds_F\arsenal\weapons\Rifles\TRG20\TRG20_tail_houses",1,1,1400};
						frequency = 1;
						volume = "(1-interior/1.4)*houses";
					};
				};
			};
			class SilencedSound: BaseSoundModeType
			{
				class SoundTails
				{
					class TailTrees
					{
						sound[] = {"A3\Sounds_F\arsenal\weapons\Rifles\TRG20\Silencer_TRG20_Tail_trees",1,1,400};
						frequency = 1;
						volume = "(1-interior/1.4)*trees";
					};
					class TailForest
					{
						sound[] = {"A3\Sounds_F\arsenal\weapons\Rifles\TRG20\Silencer_TRG20_Tail_forest",1,1,400};
						frequency = 1;
						volume = "(1-interior/1.4)*forest";
					};
					class TailInterior
					{
						sound[] = {"A3\Sounds_F\arsenal\weapons\Rifles\TRG20\Silencer_TRG20_tail_interior",1,1,400};
						frequency = 1;
						volume = "interior";
					};
					class TailMeadows
					{
						sound[] = {"A3\Sounds_F\arsenal\weapons\Rifles\TRG20\Silencer_TRG20_Tail_meadows",1,1,400};
						frequency = 1;
						volume = "(1-interior/1.4)*(meadows/2 max sea/2)";
					};
					class TailHouses
					{
						sound[] = {"A3\Sounds_F\arsenal\weapons\Rifles\TRG20\Silencer_TRG20_Tail_houses",1,1,400};
						frequency = 1;
						volume = "(1-interior/1.4)*houses";
					};
				};
			};
		};
	};
};
